   1              	 .cpu cortex-m0
   2              	 .fpu softvfp
   3              	 .eabi_attribute 20,1
   4              	 .eabi_attribute 21,1
   5              	 .eabi_attribute 23,3
   6              	 .eabi_attribute 24,1
   7              	 .eabi_attribute 25,1
   8              	 .eabi_attribute 26,1
   9              	 .eabi_attribute 30,6
  10              	 .eabi_attribute 34,0
  11              	 .eabi_attribute 18,4
  12              	 .code 16
  13              	 .file "Motor.c"
  14              	 .text
  15              	.Ltext0:
  16              	 .cfi_sections .debug_frame
  17              	 .section .text.XMC_GPIO_SetOutputHigh,"ax",%progbits
  18              	 .align 2
  19              	 .code 16
  20              	 .thumb_func
  22              	XMC_GPIO_SetOutputHigh:
  23              	.LFB104:
  24              	 .file 1 "D:/Proiecte/PM/linefol/Libraries/XMCLib/inc/xmc_gpio.h"
   1:D:/Proiecte/PM/linefol/Libraries/XMCLib/inc\xmc_gpio.h **** /**
   2:D:/Proiecte/PM/linefol/Libraries/XMCLib/inc\xmc_gpio.h ****  * @file xmc_gpio.h
   3:D:/Proiecte/PM/linefol/Libraries/XMCLib/inc\xmc_gpio.h ****  * @date 2015-06-20
   4:D:/Proiecte/PM/linefol/Libraries/XMCLib/inc\xmc_gpio.h ****  *
   5:D:/Proiecte/PM/linefol/Libraries/XMCLib/inc\xmc_gpio.h ****  * @cond
   6:D:/Proiecte/PM/linefol/Libraries/XMCLib/inc\xmc_gpio.h ****  **************************************************************************************************
   7:D:/Proiecte/PM/linefol/Libraries/XMCLib/inc\xmc_gpio.h ****  * XMClib v2.1.18 - XMC Peripheral Driver Library 
   8:D:/Proiecte/PM/linefol/Libraries/XMCLib/inc\xmc_gpio.h ****  *
   9:D:/Proiecte/PM/linefol/Libraries/XMCLib/inc\xmc_gpio.h ****  * Copyright (c) 2015-2018, Infineon Technologies AG
  10:D:/Proiecte/PM/linefol/Libraries/XMCLib/inc\xmc_gpio.h ****  * All rights reserved.                        
  11:D:/Proiecte/PM/linefol/Libraries/XMCLib/inc\xmc_gpio.h ****  *                                             
  12:D:/Proiecte/PM/linefol/Libraries/XMCLib/inc\xmc_gpio.h ****  * Redistribution and use in source and binary forms, with or without modification,are permitted pr
  13:D:/Proiecte/PM/linefol/Libraries/XMCLib/inc\xmc_gpio.h ****  * following conditions are met:   
  14:D:/Proiecte/PM/linefol/Libraries/XMCLib/inc\xmc_gpio.h ****  *                                                                              
  15:D:/Proiecte/PM/linefol/Libraries/XMCLib/inc\xmc_gpio.h ****  * Redistributions of source code must retain the above copyright notice, this list of conditions a
  16:D:/Proiecte/PM/linefol/Libraries/XMCLib/inc\xmc_gpio.h ****  * disclaimer.                        
  17:D:/Proiecte/PM/linefol/Libraries/XMCLib/inc\xmc_gpio.h ****  * 
  18:D:/Proiecte/PM/linefol/Libraries/XMCLib/inc\xmc_gpio.h ****  * Redistributions in binary form must reproduce the above copyright notice, this list of condition
  19:D:/Proiecte/PM/linefol/Libraries/XMCLib/inc\xmc_gpio.h ****  * disclaimer in the documentation and/or other materials provided with the distribution.          
  20:D:/Proiecte/PM/linefol/Libraries/XMCLib/inc\xmc_gpio.h ****  * 
  21:D:/Proiecte/PM/linefol/Libraries/XMCLib/inc\xmc_gpio.h ****  * Neither the name of the copyright holders nor the names of its contributors may be used to endor
  22:D:/Proiecte/PM/linefol/Libraries/XMCLib/inc\xmc_gpio.h ****  * products derived from this software without specific prior written permission.                  
  23:D:/Proiecte/PM/linefol/Libraries/XMCLib/inc\xmc_gpio.h ****  *                                                                              
  24:D:/Proiecte/PM/linefol/Libraries/XMCLib/inc\xmc_gpio.h ****  * THIS SOFTWARE IS PROVIDED BY THE COPYRIGHT HOLDERS AND CONTRIBUTORS "AS IS" AND ANY EXPRESS OR I
  25:D:/Proiecte/PM/linefol/Libraries/XMCLib/inc\xmc_gpio.h ****  * INCLUDING, BUT NOT LIMITED TO, THE IMPLIED WARRANTIES OF MERCHANTABILITY AND FITNESS FOR A PARTI
  26:D:/Proiecte/PM/linefol/Libraries/XMCLib/inc\xmc_gpio.h ****  * DISCLAIMED. IN NO EVENT SHALL THE COPYRIGHT HOLDER OR CONTRIBUTORS BE LIABLE  FOR ANY DIRECT, IN
  27:D:/Proiecte/PM/linefol/Libraries/XMCLib/inc\xmc_gpio.h ****  * SPECIAL, EXEMPLARY, OR CONSEQUENTIAL DAMAGES (INCLUDING, BUT NOT LIMITED TO, PROCUREMENT OF SUBS
  28:D:/Proiecte/PM/linefol/Libraries/XMCLib/inc\xmc_gpio.h ****  * SERVICES; LOSS OF USE, DATA, OR PROFITS; OR BUSINESS INTERRUPTION) HOWEVER CAUSED AND ON ANY THE
  29:D:/Proiecte/PM/linefol/Libraries/XMCLib/inc\xmc_gpio.h ****  * WHETHER IN CONTRACT, STRICT LIABILITY,OR TORT (INCLUDING NEGLIGENCE OR OTHERWISE) ARISING IN ANY
  30:D:/Proiecte/PM/linefol/Libraries/XMCLib/inc\xmc_gpio.h ****  * OF THIS SOFTWARE, EVEN IF ADVISED OF THE POSSIBILITY OF SUCH DAMAGE.                            
  31:D:/Proiecte/PM/linefol/Libraries/XMCLib/inc\xmc_gpio.h ****  *                                                                              
  32:D:/Proiecte/PM/linefol/Libraries/XMCLib/inc\xmc_gpio.h ****  * To improve the quality of the software, users are encouraged to share modifications, enhancement
  33:D:/Proiecte/PM/linefol/Libraries/XMCLib/inc\xmc_gpio.h ****  * Infineon Technologies AG dave@infineon.com).                                                    
  34:D:/Proiecte/PM/linefol/Libraries/XMCLib/inc\xmc_gpio.h ****  **************************************************************************************************
  35:D:/Proiecte/PM/linefol/Libraries/XMCLib/inc\xmc_gpio.h ****  *
  36:D:/Proiecte/PM/linefol/Libraries/XMCLib/inc\xmc_gpio.h ****  * Change History
  37:D:/Proiecte/PM/linefol/Libraries/XMCLib/inc\xmc_gpio.h ****  * --------------
  38:D:/Proiecte/PM/linefol/Libraries/XMCLib/inc\xmc_gpio.h ****  *
  39:D:/Proiecte/PM/linefol/Libraries/XMCLib/inc\xmc_gpio.h ****  * 2015-02-20:
  40:D:/Proiecte/PM/linefol/Libraries/XMCLib/inc\xmc_gpio.h ****  *     - Initial draft<br>
  41:D:/Proiecte/PM/linefol/Libraries/XMCLib/inc\xmc_gpio.h ****  *     - Documentation improved <br>
  42:D:/Proiecte/PM/linefol/Libraries/XMCLib/inc\xmc_gpio.h ****  *      
  43:D:/Proiecte/PM/linefol/Libraries/XMCLib/inc\xmc_gpio.h ****  * 2015-06-20:
  44:D:/Proiecte/PM/linefol/Libraries/XMCLib/inc\xmc_gpio.h ****  *     - Removed version macros and declaration of GetDriverVersion API
  45:D:/Proiecte/PM/linefol/Libraries/XMCLib/inc\xmc_gpio.h ****  *
  46:D:/Proiecte/PM/linefol/Libraries/XMCLib/inc\xmc_gpio.h ****  * @endcond
  47:D:/Proiecte/PM/linefol/Libraries/XMCLib/inc\xmc_gpio.h ****  *
  48:D:/Proiecte/PM/linefol/Libraries/XMCLib/inc\xmc_gpio.h ****  */
  49:D:/Proiecte/PM/linefol/Libraries/XMCLib/inc\xmc_gpio.h **** 
  50:D:/Proiecte/PM/linefol/Libraries/XMCLib/inc\xmc_gpio.h **** #ifndef XMC_GPIO_H
  51:D:/Proiecte/PM/linefol/Libraries/XMCLib/inc\xmc_gpio.h **** #define XMC_GPIO_H
  52:D:/Proiecte/PM/linefol/Libraries/XMCLib/inc\xmc_gpio.h **** 
  53:D:/Proiecte/PM/linefol/Libraries/XMCLib/inc\xmc_gpio.h **** /**************************************************************************************************
  54:D:/Proiecte/PM/linefol/Libraries/XMCLib/inc\xmc_gpio.h ****  * HEADER FILES
  55:D:/Proiecte/PM/linefol/Libraries/XMCLib/inc\xmc_gpio.h ****  **************************************************************************************************
  56:D:/Proiecte/PM/linefol/Libraries/XMCLib/inc\xmc_gpio.h **** 
  57:D:/Proiecte/PM/linefol/Libraries/XMCLib/inc\xmc_gpio.h **** #include "xmc_common.h"
  58:D:/Proiecte/PM/linefol/Libraries/XMCLib/inc\xmc_gpio.h **** 
  59:D:/Proiecte/PM/linefol/Libraries/XMCLib/inc\xmc_gpio.h **** /**
  60:D:/Proiecte/PM/linefol/Libraries/XMCLib/inc\xmc_gpio.h ****  * @addtogroup XMClib XMC Peripheral Library
  61:D:/Proiecte/PM/linefol/Libraries/XMCLib/inc\xmc_gpio.h ****  * @{
  62:D:/Proiecte/PM/linefol/Libraries/XMCLib/inc\xmc_gpio.h ****  */
  63:D:/Proiecte/PM/linefol/Libraries/XMCLib/inc\xmc_gpio.h **** 
  64:D:/Proiecte/PM/linefol/Libraries/XMCLib/inc\xmc_gpio.h **** /**
  65:D:/Proiecte/PM/linefol/Libraries/XMCLib/inc\xmc_gpio.h ****  * @addtogroup GPIO
  66:D:/Proiecte/PM/linefol/Libraries/XMCLib/inc\xmc_gpio.h ****  * @brief General Purpose Input Output (GPIO) driver for the XMC microcontroller family.
  67:D:/Proiecte/PM/linefol/Libraries/XMCLib/inc\xmc_gpio.h ****  *
  68:D:/Proiecte/PM/linefol/Libraries/XMCLib/inc\xmc_gpio.h ****  * GPIO driver provide a generic and very flexible software interface for all standard digital I/O 
  69:D:/Proiecte/PM/linefol/Libraries/XMCLib/inc\xmc_gpio.h ****  * Each port slice has individual interfaces for the operation as General Purpose I/O and it furthe
  70:D:/Proiecte/PM/linefol/Libraries/XMCLib/inc\xmc_gpio.h ****  * connectivity to the on-chip periphery and the control for the pad characteristics. 
  71:D:/Proiecte/PM/linefol/Libraries/XMCLib/inc\xmc_gpio.h ****  *
  72:D:/Proiecte/PM/linefol/Libraries/XMCLib/inc\xmc_gpio.h ****  * The driver is divided into Input and Output mode.
  73:D:/Proiecte/PM/linefol/Libraries/XMCLib/inc\xmc_gpio.h ****  *
  74:D:/Proiecte/PM/linefol/Libraries/XMCLib/inc\xmc_gpio.h ****  * Input mode features:
  75:D:/Proiecte/PM/linefol/Libraries/XMCLib/inc\xmc_gpio.h ****  * -# Configuration structure XMC_GPIO_CONFIG_t and initialization function XMC_GPIO_Init()
  76:D:/Proiecte/PM/linefol/Libraries/XMCLib/inc\xmc_gpio.h ****  * -# Allows the selection of weak pull-up or pull-down device. Configuration structure XMC_GPIO_MO
  77:D:/Proiecte/PM/linefol/Libraries/XMCLib/inc\xmc_gpio.h ****  * \if XMC1
  78:D:/Proiecte/PM/linefol/Libraries/XMCLib/inc\xmc_gpio.h ****  * -# Allows the selection of input hysteresis. XMC_GPIO_SetInputHysteresis()
  79:D:/Proiecte/PM/linefol/Libraries/XMCLib/inc\xmc_gpio.h ****  * \endif
  80:D:/Proiecte/PM/linefol/Libraries/XMCLib/inc\xmc_gpio.h ****  *
  81:D:/Proiecte/PM/linefol/Libraries/XMCLib/inc\xmc_gpio.h ****  * 
  82:D:/Proiecte/PM/linefol/Libraries/XMCLib/inc\xmc_gpio.h ****  * Output mode features:
  83:D:/Proiecte/PM/linefol/Libraries/XMCLib/inc\xmc_gpio.h ****  * -# Allows the selection of push pull/open drain and Alternate output. Configuration structure XM
  84:D:/Proiecte/PM/linefol/Libraries/XMCLib/inc\xmc_gpio.h ****  * \if XMC4
  85:D:/Proiecte/PM/linefol/Libraries/XMCLib/inc\xmc_gpio.h ****  * -# Allows the selection of pad driver strength. Configuration structure XMC_GPIO_OUTPUT_STRENGTH
  86:D:/Proiecte/PM/linefol/Libraries/XMCLib/inc\xmc_gpio.h ****  * \endif
  87:D:/Proiecte/PM/linefol/Libraries/XMCLib/inc\xmc_gpio.h ****  *
  88:D:/Proiecte/PM/linefol/Libraries/XMCLib/inc\xmc_gpio.h ****  * -# Allows the selection of initial output level. Configuration structure XMC_GPIO_OUTPUT_LEVEL_t
  89:D:/Proiecte/PM/linefol/Libraries/XMCLib/inc\xmc_gpio.h ****  *
  90:D:/Proiecte/PM/linefol/Libraries/XMCLib/inc\xmc_gpio.h ****  *@{
  91:D:/Proiecte/PM/linefol/Libraries/XMCLib/inc\xmc_gpio.h ****  */
  92:D:/Proiecte/PM/linefol/Libraries/XMCLib/inc\xmc_gpio.h ****  
  93:D:/Proiecte/PM/linefol/Libraries/XMCLib/inc\xmc_gpio.h **** /**************************************************************************************************
  94:D:/Proiecte/PM/linefol/Libraries/XMCLib/inc\xmc_gpio.h ****  * MACROS
  95:D:/Proiecte/PM/linefol/Libraries/XMCLib/inc\xmc_gpio.h ****  **************************************************************************************************
  96:D:/Proiecte/PM/linefol/Libraries/XMCLib/inc\xmc_gpio.h **** 
  97:D:/Proiecte/PM/linefol/Libraries/XMCLib/inc\xmc_gpio.h **** #define PORT_IOCR_PC_Pos PORT0_IOCR0_PC0_Pos
  98:D:/Proiecte/PM/linefol/Libraries/XMCLib/inc\xmc_gpio.h **** #define PORT_IOCR_PC_Msk PORT0_IOCR0_PC0_Msk
  99:D:/Proiecte/PM/linefol/Libraries/XMCLib/inc\xmc_gpio.h **** 
 100:D:/Proiecte/PM/linefol/Libraries/XMCLib/inc\xmc_gpio.h **** #define PORT_IOCR_PC_Size 				(8U)
 101:D:/Proiecte/PM/linefol/Libraries/XMCLib/inc\xmc_gpio.h **** 											
 102:D:/Proiecte/PM/linefol/Libraries/XMCLib/inc\xmc_gpio.h **** 
 103:D:/Proiecte/PM/linefol/Libraries/XMCLib/inc\xmc_gpio.h **** #define XMC_GPIO_CHECK_OUTPUT_LEVEL(level) ((level == XMC_GPIO_OUTPUT_LEVEL_LOW) || \
 104:D:/Proiecte/PM/linefol/Libraries/XMCLib/inc\xmc_gpio.h ****                                             (level == XMC_GPIO_OUTPUT_LEVEL_HIGH))
 105:D:/Proiecte/PM/linefol/Libraries/XMCLib/inc\xmc_gpio.h ****                                             
 106:D:/Proiecte/PM/linefol/Libraries/XMCLib/inc\xmc_gpio.h **** #define XMC_GPIO_CHECK_HWCTRL(hwctrl) ((hwctrl == XMC_GPIO_HWCTRL_DISABLED) || \
 107:D:/Proiecte/PM/linefol/Libraries/XMCLib/inc\xmc_gpio.h ****                                        (hwctrl == XMC_GPIO_HWCTRL_PERIPHERAL1) || \
 108:D:/Proiecte/PM/linefol/Libraries/XMCLib/inc\xmc_gpio.h ****                                        (hwctrl == XMC_GPIO_HWCTRL_PERIPHERAL2))                    
 109:D:/Proiecte/PM/linefol/Libraries/XMCLib/inc\xmc_gpio.h ****                                             
 110:D:/Proiecte/PM/linefol/Libraries/XMCLib/inc\xmc_gpio.h **** /**************************************************************************************************
 111:D:/Proiecte/PM/linefol/Libraries/XMCLib/inc\xmc_gpio.h ****  * ENUMS
 112:D:/Proiecte/PM/linefol/Libraries/XMCLib/inc\xmc_gpio.h ****  **************************************************************************************************
 113:D:/Proiecte/PM/linefol/Libraries/XMCLib/inc\xmc_gpio.h **** 
 114:D:/Proiecte/PM/linefol/Libraries/XMCLib/inc\xmc_gpio.h **** 
 115:D:/Proiecte/PM/linefol/Libraries/XMCLib/inc\xmc_gpio.h **** /**
 116:D:/Proiecte/PM/linefol/Libraries/XMCLib/inc\xmc_gpio.h ****  * Defines output level of a pin. Use type \a XMC_GPIO_OUTPUT_LEVEL_t for this enum.
 117:D:/Proiecte/PM/linefol/Libraries/XMCLib/inc\xmc_gpio.h ****  */
 118:D:/Proiecte/PM/linefol/Libraries/XMCLib/inc\xmc_gpio.h **** typedef enum XMC_GPIO_OUTPUT_LEVEL
 119:D:/Proiecte/PM/linefol/Libraries/XMCLib/inc\xmc_gpio.h **** {
 120:D:/Proiecte/PM/linefol/Libraries/XMCLib/inc\xmc_gpio.h ****   XMC_GPIO_OUTPUT_LEVEL_LOW  = 0x10000U, /**<  Reset bit */
 121:D:/Proiecte/PM/linefol/Libraries/XMCLib/inc\xmc_gpio.h ****   XMC_GPIO_OUTPUT_LEVEL_HIGH = 0x1U, 	/**< Set bit  */
 122:D:/Proiecte/PM/linefol/Libraries/XMCLib/inc\xmc_gpio.h **** } XMC_GPIO_OUTPUT_LEVEL_t;
 123:D:/Proiecte/PM/linefol/Libraries/XMCLib/inc\xmc_gpio.h **** 
 124:D:/Proiecte/PM/linefol/Libraries/XMCLib/inc\xmc_gpio.h **** /**
 125:D:/Proiecte/PM/linefol/Libraries/XMCLib/inc\xmc_gpio.h ****  * Defines direct hardware control characteristics of the pin . Use type \a XMC_GPIO_HWCTRL_t for t
 126:D:/Proiecte/PM/linefol/Libraries/XMCLib/inc\xmc_gpio.h ****  */
 127:D:/Proiecte/PM/linefol/Libraries/XMCLib/inc\xmc_gpio.h **** typedef enum XMC_GPIO_HWCTRL
 128:D:/Proiecte/PM/linefol/Libraries/XMCLib/inc\xmc_gpio.h **** {
 129:D:/Proiecte/PM/linefol/Libraries/XMCLib/inc\xmc_gpio.h ****   XMC_GPIO_HWCTRL_DISABLED     = 0x0U, /**<  Software control only */
 130:D:/Proiecte/PM/linefol/Libraries/XMCLib/inc\xmc_gpio.h ****   XMC_GPIO_HWCTRL_PERIPHERAL1  = 0x1U, /**<  HWI0/HWO0 control path can override the software confi
 131:D:/Proiecte/PM/linefol/Libraries/XMCLib/inc\xmc_gpio.h ****   XMC_GPIO_HWCTRL_PERIPHERAL2  = 0x2U  /**<  HWI1/HWO1 control path can override the software confi
 132:D:/Proiecte/PM/linefol/Libraries/XMCLib/inc\xmc_gpio.h **** } XMC_GPIO_HWCTRL_t;
 133:D:/Proiecte/PM/linefol/Libraries/XMCLib/inc\xmc_gpio.h **** 
 134:D:/Proiecte/PM/linefol/Libraries/XMCLib/inc\xmc_gpio.h **** /**************************************************************************************************
 135:D:/Proiecte/PM/linefol/Libraries/XMCLib/inc\xmc_gpio.h ****  * DEVICE FAMILY EXTENSIONS
 136:D:/Proiecte/PM/linefol/Libraries/XMCLib/inc\xmc_gpio.h ****  **************************************************************************************************
 137:D:/Proiecte/PM/linefol/Libraries/XMCLib/inc\xmc_gpio.h **** 
 138:D:/Proiecte/PM/linefol/Libraries/XMCLib/inc\xmc_gpio.h ****  #if UC_FAMILY == XMC1
 139:D:/Proiecte/PM/linefol/Libraries/XMCLib/inc\xmc_gpio.h **** #include "xmc1_gpio.h"
 140:D:/Proiecte/PM/linefol/Libraries/XMCLib/inc\xmc_gpio.h **** #elif UC_FAMILY == XMC4
 141:D:/Proiecte/PM/linefol/Libraries/XMCLib/inc\xmc_gpio.h **** #include "xmc4_gpio.h"
 142:D:/Proiecte/PM/linefol/Libraries/XMCLib/inc\xmc_gpio.h **** #else
 143:D:/Proiecte/PM/linefol/Libraries/XMCLib/inc\xmc_gpio.h **** #error "xmc_gpio.h: family device not supported"
 144:D:/Proiecte/PM/linefol/Libraries/XMCLib/inc\xmc_gpio.h **** #endif
 145:D:/Proiecte/PM/linefol/Libraries/XMCLib/inc\xmc_gpio.h **** 
 146:D:/Proiecte/PM/linefol/Libraries/XMCLib/inc\xmc_gpio.h **** /**************************************************************************************************
 147:D:/Proiecte/PM/linefol/Libraries/XMCLib/inc\xmc_gpio.h ****  * API PROTOTYPES
 148:D:/Proiecte/PM/linefol/Libraries/XMCLib/inc\xmc_gpio.h ****  **************************************************************************************************
 149:D:/Proiecte/PM/linefol/Libraries/XMCLib/inc\xmc_gpio.h **** 
 150:D:/Proiecte/PM/linefol/Libraries/XMCLib/inc\xmc_gpio.h **** #ifdef __cplusplus
 151:D:/Proiecte/PM/linefol/Libraries/XMCLib/inc\xmc_gpio.h **** extern "C" {
 152:D:/Proiecte/PM/linefol/Libraries/XMCLib/inc\xmc_gpio.h **** #endif
 153:D:/Proiecte/PM/linefol/Libraries/XMCLib/inc\xmc_gpio.h **** 
 154:D:/Proiecte/PM/linefol/Libraries/XMCLib/inc\xmc_gpio.h **** 
 155:D:/Proiecte/PM/linefol/Libraries/XMCLib/inc\xmc_gpio.h **** /**
 156:D:/Proiecte/PM/linefol/Libraries/XMCLib/inc\xmc_gpio.h ****  * @param  port	  Constant pointer pointing to GPIO port, to access port registers like Pn_OUT,Pn_O
 157:D:/Proiecte/PM/linefol/Libraries/XMCLib/inc\xmc_gpio.h ****  * @param  pin	  Port pin number.
 158:D:/Proiecte/PM/linefol/Libraries/XMCLib/inc\xmc_gpio.h ****  * @param  config GPIO configuration data structure. Refer data structure @ref XMC_GPIO_CONFIG_t fo
 159:D:/Proiecte/PM/linefol/Libraries/XMCLib/inc\xmc_gpio.h ****  *
 160:D:/Proiecte/PM/linefol/Libraries/XMCLib/inc\xmc_gpio.h ****  * @return None
 161:D:/Proiecte/PM/linefol/Libraries/XMCLib/inc\xmc_gpio.h ****  *
 162:D:/Proiecte/PM/linefol/Libraries/XMCLib/inc\xmc_gpio.h ****  * \par<b>Description:</b><br>
 163:D:/Proiecte/PM/linefol/Libraries/XMCLib/inc\xmc_gpio.h ****  * \if XMC1
 164:D:/Proiecte/PM/linefol/Libraries/XMCLib/inc\xmc_gpio.h ****  * Initializes input / output mode settings like, pull up / pull down devices,hysteresis, push pull
 165:D:/Proiecte/PM/linefol/Libraries/XMCLib/inc\xmc_gpio.h ****  * Also configures alternate function outputs and clears hardware port control for a selected \a po
 166:D:/Proiecte/PM/linefol/Libraries/XMCLib/inc\xmc_gpio.h ****  * \a config provides selected I/O settings. It configures hardware registers Pn_IOCR,Pn_OUT, Pn_OM
 167:D:/Proiecte/PM/linefol/Libraries/XMCLib/inc\xmc_gpio.h ****  * \endif
 168:D:/Proiecte/PM/linefol/Libraries/XMCLib/inc\xmc_gpio.h ****  * \if XMC4
 169:D:/Proiecte/PM/linefol/Libraries/XMCLib/inc\xmc_gpio.h ****  * Initializes input / output mode settings like, pull up / pull down devices,push pull /open drain
 170:D:/Proiecte/PM/linefol/Libraries/XMCLib/inc\xmc_gpio.h ****  * Also configures alternate function outputs and clears hardware port control for selected \a port
 171:D:/Proiecte/PM/linefol/Libraries/XMCLib/inc\xmc_gpio.h ****  * It configures hardware registers Pn_IOCR,Pn_OUT,Pn_OMR,Pn_PDISC and Pn_PDR.\n
 172:D:/Proiecte/PM/linefol/Libraries/XMCLib/inc\xmc_gpio.h ****  * \endif
 173:D:/Proiecte/PM/linefol/Libraries/XMCLib/inc\xmc_gpio.h ****  *
 174:D:/Proiecte/PM/linefol/Libraries/XMCLib/inc\xmc_gpio.h ****  * \par<b>Related APIs:</b><BR>
 175:D:/Proiecte/PM/linefol/Libraries/XMCLib/inc\xmc_gpio.h ****  *  None
 176:D:/Proiecte/PM/linefol/Libraries/XMCLib/inc\xmc_gpio.h ****  *
 177:D:/Proiecte/PM/linefol/Libraries/XMCLib/inc\xmc_gpio.h ****  * \par<b>Note:</b><br>
 178:D:/Proiecte/PM/linefol/Libraries/XMCLib/inc\xmc_gpio.h ****  * This API is called in definition of DAVE_init by code generation and therefore should not be exp
 179:D:/Proiecte/PM/linefol/Libraries/XMCLib/inc\xmc_gpio.h ****  * for the normal operation. Use other APIs only after DAVE_init is called successfully (returns DA
 180:D:/Proiecte/PM/linefol/Libraries/XMCLib/inc\xmc_gpio.h ****  *
 181:D:/Proiecte/PM/linefol/Libraries/XMCLib/inc\xmc_gpio.h ****  *
 182:D:/Proiecte/PM/linefol/Libraries/XMCLib/inc\xmc_gpio.h ****  */
 183:D:/Proiecte/PM/linefol/Libraries/XMCLib/inc\xmc_gpio.h **** 
 184:D:/Proiecte/PM/linefol/Libraries/XMCLib/inc\xmc_gpio.h ****  
 185:D:/Proiecte/PM/linefol/Libraries/XMCLib/inc\xmc_gpio.h **** void XMC_GPIO_Init(XMC_GPIO_PORT_t *const port, const uint8_t pin, const XMC_GPIO_CONFIG_t *const c
 186:D:/Proiecte/PM/linefol/Libraries/XMCLib/inc\xmc_gpio.h ****  
 187:D:/Proiecte/PM/linefol/Libraries/XMCLib/inc\xmc_gpio.h **** /**
 188:D:/Proiecte/PM/linefol/Libraries/XMCLib/inc\xmc_gpio.h ****  *
 189:D:/Proiecte/PM/linefol/Libraries/XMCLib/inc\xmc_gpio.h ****  * @param  port	Constant pointer pointing to GPIO port, to access hardware register Pn_IOCR.
 190:D:/Proiecte/PM/linefol/Libraries/XMCLib/inc\xmc_gpio.h ****  * @param  pin	Port pin number.
 191:D:/Proiecte/PM/linefol/Libraries/XMCLib/inc\xmc_gpio.h ****  * @param  mode input / output functionality selection. Refer @ref XMC_GPIO_MODE_t for valid values
 192:D:/Proiecte/PM/linefol/Libraries/XMCLib/inc\xmc_gpio.h ****  *
 193:D:/Proiecte/PM/linefol/Libraries/XMCLib/inc\xmc_gpio.h ****  * @return None
 194:D:/Proiecte/PM/linefol/Libraries/XMCLib/inc\xmc_gpio.h ****  *
 195:D:/Proiecte/PM/linefol/Libraries/XMCLib/inc\xmc_gpio.h ****  * \par<b>Description:</b><br>
 196:D:/Proiecte/PM/linefol/Libraries/XMCLib/inc\xmc_gpio.h ****  * Sets digital input and output driver functionality and characteristics of a GPIO port pin. It co
 197:D:/Proiecte/PM/linefol/Libraries/XMCLib/inc\xmc_gpio.h ****  * registers Pn_IOCR. \a mode is initially configured during initialization in XMC_GPIO_Init(). Cal
 198:D:/Proiecte/PM/linefol/Libraries/XMCLib/inc\xmc_gpio.h ****  * the port direction functionality as needed later in the program.
 199:D:/Proiecte/PM/linefol/Libraries/XMCLib/inc\xmc_gpio.h ****  *
 200:D:/Proiecte/PM/linefol/Libraries/XMCLib/inc\xmc_gpio.h ****  * \par<b>Related APIs:</b><BR>
 201:D:/Proiecte/PM/linefol/Libraries/XMCLib/inc\xmc_gpio.h ****  *  None
 202:D:/Proiecte/PM/linefol/Libraries/XMCLib/inc\xmc_gpio.h ****  *
 203:D:/Proiecte/PM/linefol/Libraries/XMCLib/inc\xmc_gpio.h ****  */
 204:D:/Proiecte/PM/linefol/Libraries/XMCLib/inc\xmc_gpio.h **** 
 205:D:/Proiecte/PM/linefol/Libraries/XMCLib/inc\xmc_gpio.h **** void XMC_GPIO_SetMode(XMC_GPIO_PORT_t *const port, const uint8_t pin, const XMC_GPIO_MODE_t mode);
 206:D:/Proiecte/PM/linefol/Libraries/XMCLib/inc\xmc_gpio.h **** 
 207:D:/Proiecte/PM/linefol/Libraries/XMCLib/inc\xmc_gpio.h **** 
 208:D:/Proiecte/PM/linefol/Libraries/XMCLib/inc\xmc_gpio.h **** /**
 209:D:/Proiecte/PM/linefol/Libraries/XMCLib/inc\xmc_gpio.h ****  *
 210:D:/Proiecte/PM/linefol/Libraries/XMCLib/inc\xmc_gpio.h ****  * @param  port	 Constant pointer pointing to GPIO port, to access hardware register Pn_OMR.
 211:D:/Proiecte/PM/linefol/Libraries/XMCLib/inc\xmc_gpio.h ****  * @param  pin	 Port pin number.
 212:D:/Proiecte/PM/linefol/Libraries/XMCLib/inc\xmc_gpio.h ****  * @param  level output level selection. Refer @ref XMC_GPIO_OUTPUT_LEVEL_t for valid values.
 213:D:/Proiecte/PM/linefol/Libraries/XMCLib/inc\xmc_gpio.h ****  *
 214:D:/Proiecte/PM/linefol/Libraries/XMCLib/inc\xmc_gpio.h ****  * @return None
 215:D:/Proiecte/PM/linefol/Libraries/XMCLib/inc\xmc_gpio.h ****  *
 216:D:/Proiecte/PM/linefol/Libraries/XMCLib/inc\xmc_gpio.h ****  * \par<b>Description:</b><br>
 217:D:/Proiecte/PM/linefol/Libraries/XMCLib/inc\xmc_gpio.h ****  * Set port pin output level to high or low.It configures hardware registers Pn_OMR.\a level is ini
 218:D:/Proiecte/PM/linefol/Libraries/XMCLib/inc\xmc_gpio.h ****  * configured during initialization in XMC_GPIO_Init(). Call this API to alter output level as need
 219:D:/Proiecte/PM/linefol/Libraries/XMCLib/inc\xmc_gpio.h ****  *
 220:D:/Proiecte/PM/linefol/Libraries/XMCLib/inc\xmc_gpio.h ****  * \par<b>Related APIs:</b><BR>
 221:D:/Proiecte/PM/linefol/Libraries/XMCLib/inc\xmc_gpio.h ****  *  XMC_GPIO_SetOutputHigh(), XMC_GPIO_SetOutputLow().
 222:D:/Proiecte/PM/linefol/Libraries/XMCLib/inc\xmc_gpio.h ****  *
 223:D:/Proiecte/PM/linefol/Libraries/XMCLib/inc\xmc_gpio.h ****  * \par<b>Note:</b><br>
 224:D:/Proiecte/PM/linefol/Libraries/XMCLib/inc\xmc_gpio.h ****  * Prior to this api, user has to configure port pin to output mode using XMC_GPIO_SetMode().
 225:D:/Proiecte/PM/linefol/Libraries/XMCLib/inc\xmc_gpio.h ****  *
 226:D:/Proiecte/PM/linefol/Libraries/XMCLib/inc\xmc_gpio.h ****  */
 227:D:/Proiecte/PM/linefol/Libraries/XMCLib/inc\xmc_gpio.h **** 
 228:D:/Proiecte/PM/linefol/Libraries/XMCLib/inc\xmc_gpio.h **** 
 229:D:/Proiecte/PM/linefol/Libraries/XMCLib/inc\xmc_gpio.h **** __STATIC_INLINE void XMC_GPIO_SetOutputLevel(XMC_GPIO_PORT_t *const port, const uint8_t pin, const 
 230:D:/Proiecte/PM/linefol/Libraries/XMCLib/inc\xmc_gpio.h **** {
 231:D:/Proiecte/PM/linefol/Libraries/XMCLib/inc\xmc_gpio.h ****   XMC_ASSERT("XMC_GPIO_SetOutputLevel: Invalid port", XMC_GPIO_CHECK_OUTPUT_PORT(port));
 232:D:/Proiecte/PM/linefol/Libraries/XMCLib/inc\xmc_gpio.h ****   XMC_ASSERT("XMC_GPIO_SetOutputLevel: Invalid output level", XMC_GPIO_CHECK_OUTPUT_LEVEL(level));
 233:D:/Proiecte/PM/linefol/Libraries/XMCLib/inc\xmc_gpio.h ****   
 234:D:/Proiecte/PM/linefol/Libraries/XMCLib/inc\xmc_gpio.h ****   port->OMR = (uint32_t)level << pin;
 235:D:/Proiecte/PM/linefol/Libraries/XMCLib/inc\xmc_gpio.h **** }
 236:D:/Proiecte/PM/linefol/Libraries/XMCLib/inc\xmc_gpio.h **** 
 237:D:/Proiecte/PM/linefol/Libraries/XMCLib/inc\xmc_gpio.h **** 
 238:D:/Proiecte/PM/linefol/Libraries/XMCLib/inc\xmc_gpio.h **** /**
 239:D:/Proiecte/PM/linefol/Libraries/XMCLib/inc\xmc_gpio.h ****  * @param  port constant pointer pointing to GPIO port, to access hardware register Pn_OMR.
 240:D:/Proiecte/PM/linefol/Libraries/XMCLib/inc\xmc_gpio.h ****  * @param  pin	Port pin number.
 241:D:/Proiecte/PM/linefol/Libraries/XMCLib/inc\xmc_gpio.h ****  *
 242:D:/Proiecte/PM/linefol/Libraries/XMCLib/inc\xmc_gpio.h ****  * @return None
 243:D:/Proiecte/PM/linefol/Libraries/XMCLib/inc\xmc_gpio.h ****  *
 244:D:/Proiecte/PM/linefol/Libraries/XMCLib/inc\xmc_gpio.h ****  * \par<b>Description:</b><br>
 245:D:/Proiecte/PM/linefol/Libraries/XMCLib/inc\xmc_gpio.h ****  *  Sets port pin output to high. It configures hardware registers Pn_OMR.
 246:D:/Proiecte/PM/linefol/Libraries/XMCLib/inc\xmc_gpio.h ****  *
 247:D:/Proiecte/PM/linefol/Libraries/XMCLib/inc\xmc_gpio.h ****  *  \par<b>Related APIs:</b><BR>
 248:D:/Proiecte/PM/linefol/Libraries/XMCLib/inc\xmc_gpio.h ****  *  XMC_GPIO_SetOutputLow()
 249:D:/Proiecte/PM/linefol/Libraries/XMCLib/inc\xmc_gpio.h ****  *
 250:D:/Proiecte/PM/linefol/Libraries/XMCLib/inc\xmc_gpio.h ****  * \par<b>Note:</b><br>
 251:D:/Proiecte/PM/linefol/Libraries/XMCLib/inc\xmc_gpio.h ****  * Prior to this api, user has to configure port pin to output mode using XMC_GPIO_SetMode().\n
 252:D:/Proiecte/PM/linefol/Libraries/XMCLib/inc\xmc_gpio.h ****  * Register Pn_OMR is virtual and does not contain any flip-flop. A read action delivers the value 
 253:D:/Proiecte/PM/linefol/Libraries/XMCLib/inc\xmc_gpio.h ****  *
 254:D:/Proiecte/PM/linefol/Libraries/XMCLib/inc\xmc_gpio.h ****  */
 255:D:/Proiecte/PM/linefol/Libraries/XMCLib/inc\xmc_gpio.h **** 
 256:D:/Proiecte/PM/linefol/Libraries/XMCLib/inc\xmc_gpio.h **** __STATIC_INLINE void XMC_GPIO_SetOutputHigh(XMC_GPIO_PORT_t *const port, const uint8_t pin)
 257:D:/Proiecte/PM/linefol/Libraries/XMCLib/inc\xmc_gpio.h **** {
  25              	 .loc 1 257 0
  26              	 .cfi_startproc
  27 0000 80B5     	 push {r7,lr}
  28              	.LCFI0:
  29              	 .cfi_def_cfa_offset 8
  30              	 .cfi_offset 7,-8
  31              	 .cfi_offset 14,-4
  32 0002 82B0     	 sub sp,sp,#8
  33              	.LCFI1:
  34              	 .cfi_def_cfa_offset 16
  35 0004 00AF     	 add r7,sp,#0
  36              	.LCFI2:
  37              	 .cfi_def_cfa_register 7
  38 0006 7860     	 str r0,[r7,#4]
  39 0008 0A1C     	 mov r2,r1
  40 000a FB1C     	 add r3,r7,#3
  41 000c 1A70     	 strb r2,[r3]
 258:D:/Proiecte/PM/linefol/Libraries/XMCLib/inc\xmc_gpio.h ****   XMC_ASSERT("XMC_GPIO_SetOutputHigh: Invalid port", XMC_GPIO_CHECK_OUTPUT_PORT(port));
 259:D:/Proiecte/PM/linefol/Libraries/XMCLib/inc\xmc_gpio.h **** 
 260:D:/Proiecte/PM/linefol/Libraries/XMCLib/inc\xmc_gpio.h ****   port->OMR = (uint32_t)0x1U << pin;
  42              	 .loc 1 260 0
  43 000e FB1C     	 add r3,r7,#3
  44 0010 1B78     	 ldrb r3,[r3]
  45 0012 0122     	 mov r2,#1
  46 0014 9A40     	 lsl r2,r2,r3
  47 0016 7B68     	 ldr r3,[r7,#4]
  48 0018 5A60     	 str r2,[r3,#4]
 261:D:/Proiecte/PM/linefol/Libraries/XMCLib/inc\xmc_gpio.h **** }
  49              	 .loc 1 261 0
  50 001a BD46     	 mov sp,r7
  51 001c 02B0     	 add sp,sp,#8
  52              	 
  53 001e 80BD     	 pop {r7,pc}
  54              	 .cfi_endproc
  55              	.LFE104:
  57              	 .section .text.XMC_GPIO_SetOutputLow,"ax",%progbits
  58              	 .align 2
  59              	 .code 16
  60              	 .thumb_func
  62              	XMC_GPIO_SetOutputLow:
  63              	.LFB105:
 262:D:/Proiecte/PM/linefol/Libraries/XMCLib/inc\xmc_gpio.h **** 
 263:D:/Proiecte/PM/linefol/Libraries/XMCLib/inc\xmc_gpio.h **** /**
 264:D:/Proiecte/PM/linefol/Libraries/XMCLib/inc\xmc_gpio.h ****  *
 265:D:/Proiecte/PM/linefol/Libraries/XMCLib/inc\xmc_gpio.h ****  * @param  port	constant pointer pointing to GPIO port, to access hardware register Pn_OMR.
 266:D:/Proiecte/PM/linefol/Libraries/XMCLib/inc\xmc_gpio.h ****  * @param  pin	port pin number.
 267:D:/Proiecte/PM/linefol/Libraries/XMCLib/inc\xmc_gpio.h ****  *
 268:D:/Proiecte/PM/linefol/Libraries/XMCLib/inc\xmc_gpio.h ****  * @return  None
 269:D:/Proiecte/PM/linefol/Libraries/XMCLib/inc\xmc_gpio.h ****  *
 270:D:/Proiecte/PM/linefol/Libraries/XMCLib/inc\xmc_gpio.h ****  *\par<b>Description:</b><br>
 271:D:/Proiecte/PM/linefol/Libraries/XMCLib/inc\xmc_gpio.h ****  * Sets port pin output to low. It configures hardware registers Pn_OMR.\n
 272:D:/Proiecte/PM/linefol/Libraries/XMCLib/inc\xmc_gpio.h ****  *
 273:D:/Proiecte/PM/linefol/Libraries/XMCLib/inc\xmc_gpio.h ****  * \par<b>Related APIs:</b><BR>>
 274:D:/Proiecte/PM/linefol/Libraries/XMCLib/inc\xmc_gpio.h ****  * XMC_GPIO_SetOutputHigh()
 275:D:/Proiecte/PM/linefol/Libraries/XMCLib/inc\xmc_gpio.h ****  *
 276:D:/Proiecte/PM/linefol/Libraries/XMCLib/inc\xmc_gpio.h ****  *\par<b>Note:</b><br>
 277:D:/Proiecte/PM/linefol/Libraries/XMCLib/inc\xmc_gpio.h ****  * Prior to this api, user has to configure port pin to output mode using XMC_GPIO_SetMode().
 278:D:/Proiecte/PM/linefol/Libraries/XMCLib/inc\xmc_gpio.h ****  * Register Pn_OMR is virtual and does not contain any flip-flop. A read action delivers the value 
 279:D:/Proiecte/PM/linefol/Libraries/XMCLib/inc\xmc_gpio.h ****  *
 280:D:/Proiecte/PM/linefol/Libraries/XMCLib/inc\xmc_gpio.h ****  */
 281:D:/Proiecte/PM/linefol/Libraries/XMCLib/inc\xmc_gpio.h **** 
 282:D:/Proiecte/PM/linefol/Libraries/XMCLib/inc\xmc_gpio.h **** __STATIC_INLINE void XMC_GPIO_SetOutputLow(XMC_GPIO_PORT_t *const port, const uint8_t pin)
 283:D:/Proiecte/PM/linefol/Libraries/XMCLib/inc\xmc_gpio.h **** {
  64              	 .loc 1 283 0
  65              	 .cfi_startproc
  66 0000 80B5     	 push {r7,lr}
  67              	.LCFI3:
  68              	 .cfi_def_cfa_offset 8
  69              	 .cfi_offset 7,-8
  70              	 .cfi_offset 14,-4
  71 0002 82B0     	 sub sp,sp,#8
  72              	.LCFI4:
  73              	 .cfi_def_cfa_offset 16
  74 0004 00AF     	 add r7,sp,#0
  75              	.LCFI5:
  76              	 .cfi_def_cfa_register 7
  77 0006 7860     	 str r0,[r7,#4]
  78 0008 0A1C     	 mov r2,r1
  79 000a FB1C     	 add r3,r7,#3
  80 000c 1A70     	 strb r2,[r3]
 284:D:/Proiecte/PM/linefol/Libraries/XMCLib/inc\xmc_gpio.h ****   XMC_ASSERT("XMC_GPIO_SetOutputLow: Invalid port", XMC_GPIO_CHECK_OUTPUT_PORT(port));
 285:D:/Proiecte/PM/linefol/Libraries/XMCLib/inc\xmc_gpio.h **** 
 286:D:/Proiecte/PM/linefol/Libraries/XMCLib/inc\xmc_gpio.h ****   port->OMR = 0x10000U << pin;
  81              	 .loc 1 286 0
  82 000e FB1C     	 add r3,r7,#3
  83 0010 1B78     	 ldrb r3,[r3]
  84 0012 8022     	 mov r2,#128
  85 0014 5202     	 lsl r2,r2,#9
  86 0016 9A40     	 lsl r2,r2,r3
  87 0018 7B68     	 ldr r3,[r7,#4]
  88 001a 5A60     	 str r2,[r3,#4]
 287:D:/Proiecte/PM/linefol/Libraries/XMCLib/inc\xmc_gpio.h **** }
  89              	 .loc 1 287 0
  90 001c BD46     	 mov sp,r7
  91 001e 02B0     	 add sp,sp,#8
  92              	 
  93 0020 80BD     	 pop {r7,pc}
  94              	 .cfi_endproc
  95              	.LFE105:
  97 0022 C046     	 .section .text.DIGITAL_IO_SetOutputHigh,"ax",%progbits
  98              	 .align 2
  99              	 .code 16
 100              	 .thumb_func
 102              	DIGITAL_IO_SetOutputHigh:
 103              	.LFB112:
 104              	 .file 2 "D:/Proiecte/PM/linefol/Dave/Generated/DIGITAL_IO/digital_io.h"
   1:D:/Proiecte/PM/linefol/Dave/Generated/DIGITAL_IO\digital_io.h **** /*
   2:D:/Proiecte/PM/linefol/Dave/Generated/DIGITAL_IO\digital_io.h ****  *
   3:D:/Proiecte/PM/linefol/Dave/Generated/DIGITAL_IO\digital_io.h ****  * @file digital_io.h
   4:D:/Proiecte/PM/linefol/Dave/Generated/DIGITAL_IO\digital_io.h ****  * @date 2016-07-08
   5:D:/Proiecte/PM/linefol/Dave/Generated/DIGITAL_IO\digital_io.h ****  *
   6:D:/Proiecte/PM/linefol/Dave/Generated/DIGITAL_IO\digital_io.h ****  * NOTE:
   7:D:/Proiecte/PM/linefol/Dave/Generated/DIGITAL_IO\digital_io.h ****  * This file is generated by DAVE. Any manual modification done to this file will be lost when the 
   8:D:/Proiecte/PM/linefol/Dave/Generated/DIGITAL_IO\digital_io.h ****  *
   9:D:/Proiecte/PM/linefol/Dave/Generated/DIGITAL_IO\digital_io.h ****  * @cond
  10:D:/Proiecte/PM/linefol/Dave/Generated/DIGITAL_IO\digital_io.h ****  **************************************************************************************************
  11:D:/Proiecte/PM/linefol/Dave/Generated/DIGITAL_IO\digital_io.h ****  * DIGITAL_IO v4.0.16 - The DIGITAL_IO APP is used to configure a port pin as digital Input/Output.
  12:D:/Proiecte/PM/linefol/Dave/Generated/DIGITAL_IO\digital_io.h ****  *
  13:D:/Proiecte/PM/linefol/Dave/Generated/DIGITAL_IO\digital_io.h ****  * Copyright (c) 2015-2016, Infineon Technologies AG
  14:D:/Proiecte/PM/linefol/Dave/Generated/DIGITAL_IO\digital_io.h ****  * All rights reserved.
  15:D:/Proiecte/PM/linefol/Dave/Generated/DIGITAL_IO\digital_io.h ****  *
  16:D:/Proiecte/PM/linefol/Dave/Generated/DIGITAL_IO\digital_io.h ****  * Redistribution and use in source and binary forms, with or without modification,are permitted pr
  17:D:/Proiecte/PM/linefol/Dave/Generated/DIGITAL_IO\digital_io.h ****  * following conditions are met:
  18:D:/Proiecte/PM/linefol/Dave/Generated/DIGITAL_IO\digital_io.h ****  *
  19:D:/Proiecte/PM/linefol/Dave/Generated/DIGITAL_IO\digital_io.h ****  *   Redistributions of source code must retain the above copyright notice, this list of conditions
  20:D:/Proiecte/PM/linefol/Dave/Generated/DIGITAL_IO\digital_io.h ****  *   disclaimer.
  21:D:/Proiecte/PM/linefol/Dave/Generated/DIGITAL_IO\digital_io.h ****  *
  22:D:/Proiecte/PM/linefol/Dave/Generated/DIGITAL_IO\digital_io.h ****  *   Redistributions in binary form must reproduce the above copyright notice, this list of conditi
  23:D:/Proiecte/PM/linefol/Dave/Generated/DIGITAL_IO\digital_io.h ****  *   following disclaimer in the documentation and/or other materials provided with the distributio
  24:D:/Proiecte/PM/linefol/Dave/Generated/DIGITAL_IO\digital_io.h ****  *
  25:D:/Proiecte/PM/linefol/Dave/Generated/DIGITAL_IO\digital_io.h ****  *   Neither the name of the copyright holders nor the names of its contributors may be used to end
  26:D:/Proiecte/PM/linefol/Dave/Generated/DIGITAL_IO\digital_io.h ****  *   products derived from this software without specific prior written permission.
  27:D:/Proiecte/PM/linefol/Dave/Generated/DIGITAL_IO\digital_io.h ****  *
  28:D:/Proiecte/PM/linefol/Dave/Generated/DIGITAL_IO\digital_io.h ****  * THIS SOFTWARE IS PROVIDED BY THE COPYRIGHT HOLDERS AND CONTRIBUTORS "AS IS" AND ANY EXPRESS OR I
  29:D:/Proiecte/PM/linefol/Dave/Generated/DIGITAL_IO\digital_io.h ****  * INCLUDING, BUT NOT LIMITED TO, THE IMPLIED WARRANTIES OF MERCHANTABILITY AND FITNESS FOR A PARTI
  30:D:/Proiecte/PM/linefol/Dave/Generated/DIGITAL_IO\digital_io.h ****  * DISCLAIMED. IN NO EVENT SHALL THE COPYRIGHT HOLDER OR CONTRIBUTORS BE LIABLE  FOR ANY DIRECT, IN
  31:D:/Proiecte/PM/linefol/Dave/Generated/DIGITAL_IO\digital_io.h ****  * SPECIAL, EXEMPLARY, OR CONSEQUENTIAL DAMAGES (INCLUDING, BUT NOT LIMITED TO, PROCUREMENT OF SUBS
  32:D:/Proiecte/PM/linefol/Dave/Generated/DIGITAL_IO\digital_io.h ****  * SERVICES; LOSS OF USE, DATA, OR PROFITS; OR BUSINESS INTERRUPTION) HOWEVER CAUSED AND ON ANY THE
  33:D:/Proiecte/PM/linefol/Dave/Generated/DIGITAL_IO\digital_io.h ****  * WHETHER IN CONTRACT, STRICT LIABILITY,OR TORT (INCLUDING NEGLIGENCE OR OTHERWISE) ARISING IN ANY
  34:D:/Proiecte/PM/linefol/Dave/Generated/DIGITAL_IO\digital_io.h ****  * USE OF THIS SOFTWARE, EVEN IF ADVISED OF THE POSSIBILITY OF SUCH DAMAGE.
  35:D:/Proiecte/PM/linefol/Dave/Generated/DIGITAL_IO\digital_io.h ****  *
  36:D:/Proiecte/PM/linefol/Dave/Generated/DIGITAL_IO\digital_io.h ****  * To improve the quality of the software, users are encouraged to share modifications, enhancement
  37:D:/Proiecte/PM/linefol/Dave/Generated/DIGITAL_IO\digital_io.h ****  * with Infineon Technologies AG (dave@infineon.com).
  38:D:/Proiecte/PM/linefol/Dave/Generated/DIGITAL_IO\digital_io.h ****  **************************************************************************************************
  39:D:/Proiecte/PM/linefol/Dave/Generated/DIGITAL_IO\digital_io.h ****  *
  40:D:/Proiecte/PM/linefol/Dave/Generated/DIGITAL_IO\digital_io.h ****  * Change History
  41:D:/Proiecte/PM/linefol/Dave/Generated/DIGITAL_IO\digital_io.h ****  * --------------
  42:D:/Proiecte/PM/linefol/Dave/Generated/DIGITAL_IO\digital_io.h ****  *
  43:D:/Proiecte/PM/linefol/Dave/Generated/DIGITAL_IO\digital_io.h ****  * 2015-02-16
  44:D:/Proiecte/PM/linefol/Dave/Generated/DIGITAL_IO\digital_io.h ****  *     - Initial version
  45:D:/Proiecte/PM/linefol/Dave/Generated/DIGITAL_IO\digital_io.h ****  *
  46:D:/Proiecte/PM/linefol/Dave/Generated/DIGITAL_IO\digital_io.h ****  * 2015-04-22
  47:D:/Proiecte/PM/linefol/Dave/Generated/DIGITAL_IO\digital_io.h ****  *     - XMC_ASSERT is added in static inline functions.<br>
  48:D:/Proiecte/PM/linefol/Dave/Generated/DIGITAL_IO\digital_io.h ****  *
  49:D:/Proiecte/PM/linefol/Dave/Generated/DIGITAL_IO\digital_io.h ****  * 2015-06-20
  50:D:/Proiecte/PM/linefol/Dave/Generated/DIGITAL_IO\digital_io.h ****  *     - Version check added for XMCLib dependency.<br>
  51:D:/Proiecte/PM/linefol/Dave/Generated/DIGITAL_IO\digital_io.h ****  *
  52:D:/Proiecte/PM/linefol/Dave/Generated/DIGITAL_IO\digital_io.h ****  * 2015-12-22
  53:D:/Proiecte/PM/linefol/Dave/Generated/DIGITAL_IO\digital_io.h ****  *     - Added hardware controlled IO feature.
  54:D:/Proiecte/PM/linefol/Dave/Generated/DIGITAL_IO\digital_io.h ****  * 2016-07-08:
  55:D:/Proiecte/PM/linefol/Dave/Generated/DIGITAL_IO\digital_io.h ****  *     - Fixed incorrect case for an included header.<br>
  56:D:/Proiecte/PM/linefol/Dave/Generated/DIGITAL_IO\digital_io.h ****  *
  57:D:/Proiecte/PM/linefol/Dave/Generated/DIGITAL_IO\digital_io.h ****  * @endcond
  58:D:/Proiecte/PM/linefol/Dave/Generated/DIGITAL_IO\digital_io.h ****  *
  59:D:/Proiecte/PM/linefol/Dave/Generated/DIGITAL_IO\digital_io.h ****  */
  60:D:/Proiecte/PM/linefol/Dave/Generated/DIGITAL_IO\digital_io.h **** 
  61:D:/Proiecte/PM/linefol/Dave/Generated/DIGITAL_IO\digital_io.h **** /**************************************************************************************************
  62:D:/Proiecte/PM/linefol/Dave/Generated/DIGITAL_IO\digital_io.h ****  * HEADER FILES
  63:D:/Proiecte/PM/linefol/Dave/Generated/DIGITAL_IO\digital_io.h ****  **************************************************************************************************
  64:D:/Proiecte/PM/linefol/Dave/Generated/DIGITAL_IO\digital_io.h **** 
  65:D:/Proiecte/PM/linefol/Dave/Generated/DIGITAL_IO\digital_io.h **** #ifndef DIGITAL_IO_H
  66:D:/Proiecte/PM/linefol/Dave/Generated/DIGITAL_IO\digital_io.h **** #define DIGITAL_IO_H
  67:D:/Proiecte/PM/linefol/Dave/Generated/DIGITAL_IO\digital_io.h **** 
  68:D:/Proiecte/PM/linefol/Dave/Generated/DIGITAL_IO\digital_io.h **** #include <xmc_gpio.h>
  69:D:/Proiecte/PM/linefol/Dave/Generated/DIGITAL_IO\digital_io.h **** #include <DAVE_Common.h>
  70:D:/Proiecte/PM/linefol/Dave/Generated/DIGITAL_IO\digital_io.h **** #include "digital_io_conf.h"
  71:D:/Proiecte/PM/linefol/Dave/Generated/DIGITAL_IO\digital_io.h **** 
  72:D:/Proiecte/PM/linefol/Dave/Generated/DIGITAL_IO\digital_io.h **** /**************************************************************************************************
  73:D:/Proiecte/PM/linefol/Dave/Generated/DIGITAL_IO\digital_io.h ****  * MACROS
  74:D:/Proiecte/PM/linefol/Dave/Generated/DIGITAL_IO\digital_io.h ****  **************************************************************************************************
  75:D:/Proiecte/PM/linefol/Dave/Generated/DIGITAL_IO\digital_io.h **** #if (!((XMC_LIB_MAJOR_VERSION == 2U) && \
  76:D:/Proiecte/PM/linefol/Dave/Generated/DIGITAL_IO\digital_io.h ****        (XMC_LIB_MINOR_VERSION >= 0U) && \
  77:D:/Proiecte/PM/linefol/Dave/Generated/DIGITAL_IO\digital_io.h ****        (XMC_LIB_PATCH_VERSION >= 0U)))
  78:D:/Proiecte/PM/linefol/Dave/Generated/DIGITAL_IO\digital_io.h **** #error "DIGITAL_IO requires XMC Peripheral Library v2.0.0 or higher"
  79:D:/Proiecte/PM/linefol/Dave/Generated/DIGITAL_IO\digital_io.h **** #endif
  80:D:/Proiecte/PM/linefol/Dave/Generated/DIGITAL_IO\digital_io.h **** 
  81:D:/Proiecte/PM/linefol/Dave/Generated/DIGITAL_IO\digital_io.h ****  /*************************************************************************************************
  82:D:/Proiecte/PM/linefol/Dave/Generated/DIGITAL_IO\digital_io.h ****  * ENUMS
  83:D:/Proiecte/PM/linefol/Dave/Generated/DIGITAL_IO\digital_io.h ****  **************************************************************************************************
  84:D:/Proiecte/PM/linefol/Dave/Generated/DIGITAL_IO\digital_io.h **** 
  85:D:/Proiecte/PM/linefol/Dave/Generated/DIGITAL_IO\digital_io.h **** /**
  86:D:/Proiecte/PM/linefol/Dave/Generated/DIGITAL_IO\digital_io.h **** * @ingroup DIGITAL_IO_enumerations
  87:D:/Proiecte/PM/linefol/Dave/Generated/DIGITAL_IO\digital_io.h **** * @{
  88:D:/Proiecte/PM/linefol/Dave/Generated/DIGITAL_IO\digital_io.h **** */
  89:D:/Proiecte/PM/linefol/Dave/Generated/DIGITAL_IO\digital_io.h **** 
  90:D:/Proiecte/PM/linefol/Dave/Generated/DIGITAL_IO\digital_io.h **** /**
  91:D:/Proiecte/PM/linefol/Dave/Generated/DIGITAL_IO\digital_io.h **** * @brief Initialization status of DIGITAL_IO APP.
  92:D:/Proiecte/PM/linefol/Dave/Generated/DIGITAL_IO\digital_io.h **** */
  93:D:/Proiecte/PM/linefol/Dave/Generated/DIGITAL_IO\digital_io.h **** typedef enum DIGITAL_IO_STATUS
  94:D:/Proiecte/PM/linefol/Dave/Generated/DIGITAL_IO\digital_io.h **** {
  95:D:/Proiecte/PM/linefol/Dave/Generated/DIGITAL_IO\digital_io.h ****   DIGITAL_IO_STATUS_OK = 0U,/**< 0=Status OK */
  96:D:/Proiecte/PM/linefol/Dave/Generated/DIGITAL_IO\digital_io.h ****   DIGITAL_IO_STATUS_FAILURE = 1U/**< 1=Status Failed */
  97:D:/Proiecte/PM/linefol/Dave/Generated/DIGITAL_IO\digital_io.h **** } DIGITAL_IO_STATUS_t;
  98:D:/Proiecte/PM/linefol/Dave/Generated/DIGITAL_IO\digital_io.h **** 
  99:D:/Proiecte/PM/linefol/Dave/Generated/DIGITAL_IO\digital_io.h **** /**
 100:D:/Proiecte/PM/linefol/Dave/Generated/DIGITAL_IO\digital_io.h **** * @}
 101:D:/Proiecte/PM/linefol/Dave/Generated/DIGITAL_IO\digital_io.h **** */
 102:D:/Proiecte/PM/linefol/Dave/Generated/DIGITAL_IO\digital_io.h **** 
 103:D:/Proiecte/PM/linefol/Dave/Generated/DIGITAL_IO\digital_io.h **** /**************************************************************************************************
 104:D:/Proiecte/PM/linefol/Dave/Generated/DIGITAL_IO\digital_io.h ****  * DATA STRUCTURES
 105:D:/Proiecte/PM/linefol/Dave/Generated/DIGITAL_IO\digital_io.h ****  **************************************************************************************************
 106:D:/Proiecte/PM/linefol/Dave/Generated/DIGITAL_IO\digital_io.h **** /**
 107:D:/Proiecte/PM/linefol/Dave/Generated/DIGITAL_IO\digital_io.h **** * @ingroup DIGITAL_IO_datastructures
 108:D:/Proiecte/PM/linefol/Dave/Generated/DIGITAL_IO\digital_io.h **** * @{
 109:D:/Proiecte/PM/linefol/Dave/Generated/DIGITAL_IO\digital_io.h **** */
 110:D:/Proiecte/PM/linefol/Dave/Generated/DIGITAL_IO\digital_io.h **** 
 111:D:/Proiecte/PM/linefol/Dave/Generated/DIGITAL_IO\digital_io.h **** /**
 112:D:/Proiecte/PM/linefol/Dave/Generated/DIGITAL_IO\digital_io.h **** * @brief Initialization data structure of DIGITAL_IO APP
 113:D:/Proiecte/PM/linefol/Dave/Generated/DIGITAL_IO\digital_io.h **** */
 114:D:/Proiecte/PM/linefol/Dave/Generated/DIGITAL_IO\digital_io.h **** typedef struct DIGITAL_IO
 115:D:/Proiecte/PM/linefol/Dave/Generated/DIGITAL_IO\digital_io.h **** {
 116:D:/Proiecte/PM/linefol/Dave/Generated/DIGITAL_IO\digital_io.h ****   XMC_GPIO_PORT_t *const gpio_port;             /**< port number */
 117:D:/Proiecte/PM/linefol/Dave/Generated/DIGITAL_IO\digital_io.h ****   const XMC_GPIO_CONFIG_t gpio_config;          /**< mode, initial output level and pad driver stre
 118:D:/Proiecte/PM/linefol/Dave/Generated/DIGITAL_IO\digital_io.h ****   const uint8_t gpio_pin;                       /**< pin number */
 119:D:/Proiecte/PM/linefol/Dave/Generated/DIGITAL_IO\digital_io.h ****   const XMC_GPIO_HWCTRL_t hwctrl;               /**< Hardware port control */
 120:D:/Proiecte/PM/linefol/Dave/Generated/DIGITAL_IO\digital_io.h **** } DIGITAL_IO_t;
 121:D:/Proiecte/PM/linefol/Dave/Generated/DIGITAL_IO\digital_io.h **** 
 122:D:/Proiecte/PM/linefol/Dave/Generated/DIGITAL_IO\digital_io.h **** 
 123:D:/Proiecte/PM/linefol/Dave/Generated/DIGITAL_IO\digital_io.h **** /**
 124:D:/Proiecte/PM/linefol/Dave/Generated/DIGITAL_IO\digital_io.h **** * @}
 125:D:/Proiecte/PM/linefol/Dave/Generated/DIGITAL_IO\digital_io.h **** */
 126:D:/Proiecte/PM/linefol/Dave/Generated/DIGITAL_IO\digital_io.h **** 
 127:D:/Proiecte/PM/linefol/Dave/Generated/DIGITAL_IO\digital_io.h **** 
 128:D:/Proiecte/PM/linefol/Dave/Generated/DIGITAL_IO\digital_io.h **** /**************************************************************************************************
 129:D:/Proiecte/PM/linefol/Dave/Generated/DIGITAL_IO\digital_io.h ****  * API Prototypes
 130:D:/Proiecte/PM/linefol/Dave/Generated/DIGITAL_IO\digital_io.h ****  **************************************************************************************************
 131:D:/Proiecte/PM/linefol/Dave/Generated/DIGITAL_IO\digital_io.h **** 
 132:D:/Proiecte/PM/linefol/Dave/Generated/DIGITAL_IO\digital_io.h **** 
 133:D:/Proiecte/PM/linefol/Dave/Generated/DIGITAL_IO\digital_io.h **** #ifdef __cplusplus
 134:D:/Proiecte/PM/linefol/Dave/Generated/DIGITAL_IO\digital_io.h **** extern "C" {
 135:D:/Proiecte/PM/linefol/Dave/Generated/DIGITAL_IO\digital_io.h **** #endif
 136:D:/Proiecte/PM/linefol/Dave/Generated/DIGITAL_IO\digital_io.h **** 
 137:D:/Proiecte/PM/linefol/Dave/Generated/DIGITAL_IO\digital_io.h **** /**
 138:D:/Proiecte/PM/linefol/Dave/Generated/DIGITAL_IO\digital_io.h **** * @ingroup DIGITAL_IO_apidoc
 139:D:/Proiecte/PM/linefol/Dave/Generated/DIGITAL_IO\digital_io.h **** * @{
 140:D:/Proiecte/PM/linefol/Dave/Generated/DIGITAL_IO\digital_io.h **** */
 141:D:/Proiecte/PM/linefol/Dave/Generated/DIGITAL_IO\digital_io.h **** 
 142:D:/Proiecte/PM/linefol/Dave/Generated/DIGITAL_IO\digital_io.h **** 
 143:D:/Proiecte/PM/linefol/Dave/Generated/DIGITAL_IO\digital_io.h **** 
 144:D:/Proiecte/PM/linefol/Dave/Generated/DIGITAL_IO\digital_io.h **** /**
 145:D:/Proiecte/PM/linefol/Dave/Generated/DIGITAL_IO\digital_io.h **** * @brief Get DIGITAL_IO APP version
 146:D:/Proiecte/PM/linefol/Dave/Generated/DIGITAL_IO\digital_io.h **** * @return DAVE_APP_VERSION_t APP version information (major, minor and patch number)
 147:D:/Proiecte/PM/linefol/Dave/Generated/DIGITAL_IO\digital_io.h **** *
 148:D:/Proiecte/PM/linefol/Dave/Generated/DIGITAL_IO\digital_io.h **** * \par<b>Description: </b><br>
 149:D:/Proiecte/PM/linefol/Dave/Generated/DIGITAL_IO\digital_io.h **** * The function can be used to check application software compatibility with a
 150:D:/Proiecte/PM/linefol/Dave/Generated/DIGITAL_IO\digital_io.h **** * specific version of the APP.
 151:D:/Proiecte/PM/linefol/Dave/Generated/DIGITAL_IO\digital_io.h **** *
 152:D:/Proiecte/PM/linefol/Dave/Generated/DIGITAL_IO\digital_io.h **** * Example Usage:
 153:D:/Proiecte/PM/linefol/Dave/Generated/DIGITAL_IO\digital_io.h **** *
 154:D:/Proiecte/PM/linefol/Dave/Generated/DIGITAL_IO\digital_io.h **** * @code
 155:D:/Proiecte/PM/linefol/Dave/Generated/DIGITAL_IO\digital_io.h **** * #include <DAVE.h>
 156:D:/Proiecte/PM/linefol/Dave/Generated/DIGITAL_IO\digital_io.h **** *
 157:D:/Proiecte/PM/linefol/Dave/Generated/DIGITAL_IO\digital_io.h **** * int main(void)
 158:D:/Proiecte/PM/linefol/Dave/Generated/DIGITAL_IO\digital_io.h **** * {
 159:D:/Proiecte/PM/linefol/Dave/Generated/DIGITAL_IO\digital_io.h **** *   DAVE_STATUS_t init_status;
 160:D:/Proiecte/PM/linefol/Dave/Generated/DIGITAL_IO\digital_io.h **** *   DAVE_APP_VERSION_t version;
 161:D:/Proiecte/PM/linefol/Dave/Generated/DIGITAL_IO\digital_io.h **** *
 162:D:/Proiecte/PM/linefol/Dave/Generated/DIGITAL_IO\digital_io.h **** *   // Initialize DIGITAL_IO APP:
 163:D:/Proiecte/PM/linefol/Dave/Generated/DIGITAL_IO\digital_io.h **** *   // DIGITAL_IO_Init() is called from within DAVE_Init().
 164:D:/Proiecte/PM/linefol/Dave/Generated/DIGITAL_IO\digital_io.h **** *   init_status = DAVE_Init();
 165:D:/Proiecte/PM/linefol/Dave/Generated/DIGITAL_IO\digital_io.h **** *   if(init_status == DAVE_STATUS_SUCCESS)
 166:D:/Proiecte/PM/linefol/Dave/Generated/DIGITAL_IO\digital_io.h **** *   {
 167:D:/Proiecte/PM/linefol/Dave/Generated/DIGITAL_IO\digital_io.h **** *     version = DIGITAL_IO_GetAppVersion();
 168:D:/Proiecte/PM/linefol/Dave/Generated/DIGITAL_IO\digital_io.h **** *     if (version.major != 4U) {
 169:D:/Proiecte/PM/linefol/Dave/Generated/DIGITAL_IO\digital_io.h **** *     // Probably, not the right version.
 170:D:/Proiecte/PM/linefol/Dave/Generated/DIGITAL_IO\digital_io.h **** *     }
 171:D:/Proiecte/PM/linefol/Dave/Generated/DIGITAL_IO\digital_io.h **** *   }
 172:D:/Proiecte/PM/linefol/Dave/Generated/DIGITAL_IO\digital_io.h **** *
 173:D:/Proiecte/PM/linefol/Dave/Generated/DIGITAL_IO\digital_io.h **** *     // More code here
 174:D:/Proiecte/PM/linefol/Dave/Generated/DIGITAL_IO\digital_io.h **** *     while(1) {
 175:D:/Proiecte/PM/linefol/Dave/Generated/DIGITAL_IO\digital_io.h **** *
 176:D:/Proiecte/PM/linefol/Dave/Generated/DIGITAL_IO\digital_io.h **** *     }
 177:D:/Proiecte/PM/linefol/Dave/Generated/DIGITAL_IO\digital_io.h **** *     return (1);
 178:D:/Proiecte/PM/linefol/Dave/Generated/DIGITAL_IO\digital_io.h **** *  }
 179:D:/Proiecte/PM/linefol/Dave/Generated/DIGITAL_IO\digital_io.h **** * @endcode<BR>
 180:D:/Proiecte/PM/linefol/Dave/Generated/DIGITAL_IO\digital_io.h **** */
 181:D:/Proiecte/PM/linefol/Dave/Generated/DIGITAL_IO\digital_io.h **** 
 182:D:/Proiecte/PM/linefol/Dave/Generated/DIGITAL_IO\digital_io.h **** DAVE_APP_VERSION_t DIGITAL_IO_GetAppVersion(void);
 183:D:/Proiecte/PM/linefol/Dave/Generated/DIGITAL_IO\digital_io.h **** 
 184:D:/Proiecte/PM/linefol/Dave/Generated/DIGITAL_IO\digital_io.h **** /**
 185:D:/Proiecte/PM/linefol/Dave/Generated/DIGITAL_IO\digital_io.h **** *
 186:D:/Proiecte/PM/linefol/Dave/Generated/DIGITAL_IO\digital_io.h **** * @brief Function to initialize the port pin as per UI settings.
 187:D:/Proiecte/PM/linefol/Dave/Generated/DIGITAL_IO\digital_io.h **** * @param handler Pointer pointing to APP data structure. Refer @ref DIGITAL_IO_t for details.
 188:D:/Proiecte/PM/linefol/Dave/Generated/DIGITAL_IO\digital_io.h **** * @return DIGITAL_IO_STATUS_t DIGITAL_IO APP status. Refer @ref DIGITAL_IO_STATUS_t structure for d
 189:D:/Proiecte/PM/linefol/Dave/Generated/DIGITAL_IO\digital_io.h **** *
 190:D:/Proiecte/PM/linefol/Dave/Generated/DIGITAL_IO\digital_io.h **** * \par<b>Description:</b><br>
 191:D:/Proiecte/PM/linefol/Dave/Generated/DIGITAL_IO\digital_io.h **** * This function initializes GPIO port registers IOCR,PDISC,OMR,PDR/PHCR to configure pin direction,
 192:D:/Proiecte/PM/linefol/Dave/Generated/DIGITAL_IO\digital_io.h **** * and pad driver strength/hysteresis.
 193:D:/Proiecte/PM/linefol/Dave/Generated/DIGITAL_IO\digital_io.h **** *
 194:D:/Proiecte/PM/linefol/Dave/Generated/DIGITAL_IO\digital_io.h **** * \par<b>Related APIs:</b><BR>
 195:D:/Proiecte/PM/linefol/Dave/Generated/DIGITAL_IO\digital_io.h **** * None
 196:D:/Proiecte/PM/linefol/Dave/Generated/DIGITAL_IO\digital_io.h **** *
 197:D:/Proiecte/PM/linefol/Dave/Generated/DIGITAL_IO\digital_io.h **** * Example Usage:
 198:D:/Proiecte/PM/linefol/Dave/Generated/DIGITAL_IO\digital_io.h **** * @code
 199:D:/Proiecte/PM/linefol/Dave/Generated/DIGITAL_IO\digital_io.h **** * #include <DAVE.h>//Declarations from DAVE Code Generation (includes SFR declaration)
 200:D:/Proiecte/PM/linefol/Dave/Generated/DIGITAL_IO\digital_io.h **** * int main(void)
 201:D:/Proiecte/PM/linefol/Dave/Generated/DIGITAL_IO\digital_io.h **** * {
 202:D:/Proiecte/PM/linefol/Dave/Generated/DIGITAL_IO\digital_io.h **** *   DAVE_STATUS_t status;
 203:D:/Proiecte/PM/linefol/Dave/Generated/DIGITAL_IO\digital_io.h **** *   status = DAVE_Init();  //(DAVE_STATUS_t)DIGITAL_IO_Init(&DIGITAL_IO_0) is called within DAVE_In
 204:D:/Proiecte/PM/linefol/Dave/Generated/DIGITAL_IO\digital_io.h **** *   if(status == DAVE_STATUS_SUCCESS)
 205:D:/Proiecte/PM/linefol/Dave/Generated/DIGITAL_IO\digital_io.h **** *   {
 206:D:/Proiecte/PM/linefol/Dave/Generated/DIGITAL_IO\digital_io.h **** *     XMC_DEBUG("DAVE Apps initialization success\n");
 207:D:/Proiecte/PM/linefol/Dave/Generated/DIGITAL_IO\digital_io.h **** *   }
 208:D:/Proiecte/PM/linefol/Dave/Generated/DIGITAL_IO\digital_io.h **** *   else
 209:D:/Proiecte/PM/linefol/Dave/Generated/DIGITAL_IO\digital_io.h **** *   {
 210:D:/Proiecte/PM/linefol/Dave/Generated/DIGITAL_IO\digital_io.h **** *     XMC_DEBUG(("DAVE Apps initialization failed with status %d\n", status));
 211:D:/Proiecte/PM/linefol/Dave/Generated/DIGITAL_IO\digital_io.h **** *     while(1U)
 212:D:/Proiecte/PM/linefol/Dave/Generated/DIGITAL_IO\digital_io.h **** *     {
 213:D:/Proiecte/PM/linefol/Dave/Generated/DIGITAL_IO\digital_io.h **** *     }
 214:D:/Proiecte/PM/linefol/Dave/Generated/DIGITAL_IO\digital_io.h **** *   }
 215:D:/Proiecte/PM/linefol/Dave/Generated/DIGITAL_IO\digital_io.h **** *   //Placeholder for user application code. The while loop below can be replaced with user applica
 216:D:/Proiecte/PM/linefol/Dave/Generated/DIGITAL_IO\digital_io.h **** *   while(1U)
 217:D:/Proiecte/PM/linefol/Dave/Generated/DIGITAL_IO\digital_io.h **** *   {
 218:D:/Proiecte/PM/linefol/Dave/Generated/DIGITAL_IO\digital_io.h **** *   }
 219:D:/Proiecte/PM/linefol/Dave/Generated/DIGITAL_IO\digital_io.h **** *   return 1U;
 220:D:/Proiecte/PM/linefol/Dave/Generated/DIGITAL_IO\digital_io.h **** *  }
 221:D:/Proiecte/PM/linefol/Dave/Generated/DIGITAL_IO\digital_io.h **** *  @endcode
 222:D:/Proiecte/PM/linefol/Dave/Generated/DIGITAL_IO\digital_io.h **** */
 223:D:/Proiecte/PM/linefol/Dave/Generated/DIGITAL_IO\digital_io.h **** 
 224:D:/Proiecte/PM/linefol/Dave/Generated/DIGITAL_IO\digital_io.h **** DIGITAL_IO_STATUS_t DIGITAL_IO_Init(const DIGITAL_IO_t *const handler);
 225:D:/Proiecte/PM/linefol/Dave/Generated/DIGITAL_IO\digital_io.h **** 
 226:D:/Proiecte/PM/linefol/Dave/Generated/DIGITAL_IO\digital_io.h **** /**
 227:D:/Proiecte/PM/linefol/Dave/Generated/DIGITAL_IO\digital_io.h **** *
 228:D:/Proiecte/PM/linefol/Dave/Generated/DIGITAL_IO\digital_io.h **** * @brief Function to set port pin high.
 229:D:/Proiecte/PM/linefol/Dave/Generated/DIGITAL_IO\digital_io.h **** * @param handler Pointer pointing to APP data structure. Refer @ref DIGITAL_IO_t for details.
 230:D:/Proiecte/PM/linefol/Dave/Generated/DIGITAL_IO\digital_io.h **** * @return None
 231:D:/Proiecte/PM/linefol/Dave/Generated/DIGITAL_IO\digital_io.h **** *
 232:D:/Proiecte/PM/linefol/Dave/Generated/DIGITAL_IO\digital_io.h **** * \par<b>Description:</b><br>
 233:D:/Proiecte/PM/linefol/Dave/Generated/DIGITAL_IO\digital_io.h **** * This function configures port output modification register Pn_OMR, to make port pin to high level
 234:D:/Proiecte/PM/linefol/Dave/Generated/DIGITAL_IO\digital_io.h **** *
 235:D:/Proiecte/PM/linefol/Dave/Generated/DIGITAL_IO\digital_io.h **** * \par<b>Related APIs:</b><BR>
 236:D:/Proiecte/PM/linefol/Dave/Generated/DIGITAL_IO\digital_io.h **** *  DIGITAL_IO_SetOutputLow()
 237:D:/Proiecte/PM/linefol/Dave/Generated/DIGITAL_IO\digital_io.h **** *
 238:D:/Proiecte/PM/linefol/Dave/Generated/DIGITAL_IO\digital_io.h **** * Example Usage:
 239:D:/Proiecte/PM/linefol/Dave/Generated/DIGITAL_IO\digital_io.h **** * @code
 240:D:/Proiecte/PM/linefol/Dave/Generated/DIGITAL_IO\digital_io.h **** * #include <DAVE.h>//Declarations from DAVE Code Generation (includes SFR declaration)
 241:D:/Proiecte/PM/linefol/Dave/Generated/DIGITAL_IO\digital_io.h **** * int main(void)
 242:D:/Proiecte/PM/linefol/Dave/Generated/DIGITAL_IO\digital_io.h **** * {
 243:D:/Proiecte/PM/linefol/Dave/Generated/DIGITAL_IO\digital_io.h **** *   DAVE_STATUS_t status;
 244:D:/Proiecte/PM/linefol/Dave/Generated/DIGITAL_IO\digital_io.h **** *   status = DAVE_Init();  //(DAVE_STATUS_t)DIGITAL_IO_Init(&DIGITAL_IO_0) is called within DAVE_In
 245:D:/Proiecte/PM/linefol/Dave/Generated/DIGITAL_IO\digital_io.h **** *   if(status == DAVE_STATUS_SUCCESS)
 246:D:/Proiecte/PM/linefol/Dave/Generated/DIGITAL_IO\digital_io.h **** *   {
 247:D:/Proiecte/PM/linefol/Dave/Generated/DIGITAL_IO\digital_io.h **** *     XMC_DEBUG("DAVE Apps initialization success\n");
 248:D:/Proiecte/PM/linefol/Dave/Generated/DIGITAL_IO\digital_io.h **** *   }
 249:D:/Proiecte/PM/linefol/Dave/Generated/DIGITAL_IO\digital_io.h **** *   else
 250:D:/Proiecte/PM/linefol/Dave/Generated/DIGITAL_IO\digital_io.h **** *   {
 251:D:/Proiecte/PM/linefol/Dave/Generated/DIGITAL_IO\digital_io.h **** *     XMC_DEBUG(("DAVE Apps initialization failed with status %d\n", status));
 252:D:/Proiecte/PM/linefol/Dave/Generated/DIGITAL_IO\digital_io.h **** *     while(1U)
 253:D:/Proiecte/PM/linefol/Dave/Generated/DIGITAL_IO\digital_io.h **** *     {
 254:D:/Proiecte/PM/linefol/Dave/Generated/DIGITAL_IO\digital_io.h **** *     }
 255:D:/Proiecte/PM/linefol/Dave/Generated/DIGITAL_IO\digital_io.h **** *   }
 256:D:/Proiecte/PM/linefol/Dave/Generated/DIGITAL_IO\digital_io.h **** *   //Placeholder for user application code. The while loop below can be replaced with user applica
 257:D:/Proiecte/PM/linefol/Dave/Generated/DIGITAL_IO\digital_io.h **** *   DIGITAL_IO_SetOutputHigh(&DIGITAL_IO_0);
 258:D:/Proiecte/PM/linefol/Dave/Generated/DIGITAL_IO\digital_io.h **** *   while(1U)
 259:D:/Proiecte/PM/linefol/Dave/Generated/DIGITAL_IO\digital_io.h **** *   {
 260:D:/Proiecte/PM/linefol/Dave/Generated/DIGITAL_IO\digital_io.h **** *     // Add application code here
 261:D:/Proiecte/PM/linefol/Dave/Generated/DIGITAL_IO\digital_io.h **** *   }
 262:D:/Proiecte/PM/linefol/Dave/Generated/DIGITAL_IO\digital_io.h **** *
 263:D:/Proiecte/PM/linefol/Dave/Generated/DIGITAL_IO\digital_io.h **** *   return (1);
 264:D:/Proiecte/PM/linefol/Dave/Generated/DIGITAL_IO\digital_io.h **** * }
 265:D:/Proiecte/PM/linefol/Dave/Generated/DIGITAL_IO\digital_io.h **** *  @endcode
 266:D:/Proiecte/PM/linefol/Dave/Generated/DIGITAL_IO\digital_io.h **** */
 267:D:/Proiecte/PM/linefol/Dave/Generated/DIGITAL_IO\digital_io.h **** 
 268:D:/Proiecte/PM/linefol/Dave/Generated/DIGITAL_IO\digital_io.h **** __STATIC_INLINE void DIGITAL_IO_SetOutputHigh(const DIGITAL_IO_t *const handler)
 269:D:/Proiecte/PM/linefol/Dave/Generated/DIGITAL_IO\digital_io.h **** {
 105              	 .loc 2 269 0
 106              	 .cfi_startproc
 107 0000 80B5     	 push {r7,lr}
 108              	.LCFI6:
 109              	 .cfi_def_cfa_offset 8
 110              	 .cfi_offset 7,-8
 111              	 .cfi_offset 14,-4
 112 0002 82B0     	 sub sp,sp,#8
 113              	.LCFI7:
 114              	 .cfi_def_cfa_offset 16
 115 0004 00AF     	 add r7,sp,#0
 116              	.LCFI8:
 117              	 .cfi_def_cfa_register 7
 118 0006 7860     	 str r0,[r7,#4]
 270:D:/Proiecte/PM/linefol/Dave/Generated/DIGITAL_IO\digital_io.h ****   XMC_ASSERT("DIGITAL_IO_SetOutputHigh: handler null pointer", handler != NULL);
 271:D:/Proiecte/PM/linefol/Dave/Generated/DIGITAL_IO\digital_io.h ****   XMC_GPIO_SetOutputHigh(handler->gpio_port, handler->gpio_pin);
 119              	 .loc 2 271 0
 120 0008 7B68     	 ldr r3,[r7,#4]
 121 000a 1A68     	 ldr r2,[r3]
 122 000c 7B68     	 ldr r3,[r7,#4]
 123 000e 1B7B     	 ldrb r3,[r3,#12]
 124 0010 101C     	 mov r0,r2
 125 0012 191C     	 mov r1,r3
 126 0014 FFF7FEFF 	 bl XMC_GPIO_SetOutputHigh
 272:D:/Proiecte/PM/linefol/Dave/Generated/DIGITAL_IO\digital_io.h **** }
 127              	 .loc 2 272 0
 128 0018 BD46     	 mov sp,r7
 129 001a 02B0     	 add sp,sp,#8
 130              	 
 131 001c 80BD     	 pop {r7,pc}
 132              	 .cfi_endproc
 133              	.LFE112:
 135 001e C046     	 .section .text.DIGITAL_IO_SetOutputLow,"ax",%progbits
 136              	 .align 2
 137              	 .code 16
 138              	 .thumb_func
 140              	DIGITAL_IO_SetOutputLow:
 141              	.LFB113:
 273:D:/Proiecte/PM/linefol/Dave/Generated/DIGITAL_IO\digital_io.h **** 
 274:D:/Proiecte/PM/linefol/Dave/Generated/DIGITAL_IO\digital_io.h **** /**
 275:D:/Proiecte/PM/linefol/Dave/Generated/DIGITAL_IO\digital_io.h **** * @brief Function to reset port pin.
 276:D:/Proiecte/PM/linefol/Dave/Generated/DIGITAL_IO\digital_io.h **** * @param handler Pointer pointing to APP data structure. Refer @ref DIGITAL_IO_t for details.
 277:D:/Proiecte/PM/linefol/Dave/Generated/DIGITAL_IO\digital_io.h **** * @return None
 278:D:/Proiecte/PM/linefol/Dave/Generated/DIGITAL_IO\digital_io.h **** *
 279:D:/Proiecte/PM/linefol/Dave/Generated/DIGITAL_IO\digital_io.h **** * \par<b>Description:</b><br>
 280:D:/Proiecte/PM/linefol/Dave/Generated/DIGITAL_IO\digital_io.h **** * This function configures port output modification register Pn_OMR, to make port pin to low level.
 281:D:/Proiecte/PM/linefol/Dave/Generated/DIGITAL_IO\digital_io.h **** *
 282:D:/Proiecte/PM/linefol/Dave/Generated/DIGITAL_IO\digital_io.h **** * \par<b>Related APIs:</b><BR>
 283:D:/Proiecte/PM/linefol/Dave/Generated/DIGITAL_IO\digital_io.h **** * DIGITAL_IO_SetOutputHigh()
 284:D:/Proiecte/PM/linefol/Dave/Generated/DIGITAL_IO\digital_io.h **** *
 285:D:/Proiecte/PM/linefol/Dave/Generated/DIGITAL_IO\digital_io.h **** * Example Usage:
 286:D:/Proiecte/PM/linefol/Dave/Generated/DIGITAL_IO\digital_io.h **** * @code
 287:D:/Proiecte/PM/linefol/Dave/Generated/DIGITAL_IO\digital_io.h **** *  #include <DAVE.h>//Declarations from DAVE Code Generation (includes SFR declaration)
 288:D:/Proiecte/PM/linefol/Dave/Generated/DIGITAL_IO\digital_io.h **** *  int main(void)
 289:D:/Proiecte/PM/linefol/Dave/Generated/DIGITAL_IO\digital_io.h **** *  {
 290:D:/Proiecte/PM/linefol/Dave/Generated/DIGITAL_IO\digital_io.h **** *    DAVE_STATUS_t status;
 291:D:/Proiecte/PM/linefol/Dave/Generated/DIGITAL_IO\digital_io.h **** *    status = DAVE_Init();  //(DAVE_STATUS_t)DIGITAL_IO_Init(&DIGITAL_IO_0) is called within DAVE_I
 292:D:/Proiecte/PM/linefol/Dave/Generated/DIGITAL_IO\digital_io.h **** *    if(status == DAVE_STATUS_SUCCESS)
 293:D:/Proiecte/PM/linefol/Dave/Generated/DIGITAL_IO\digital_io.h **** *    {
 294:D:/Proiecte/PM/linefol/Dave/Generated/DIGITAL_IO\digital_io.h **** *      XMC_DEBUG("DAVE Apps initialization success\n");
 295:D:/Proiecte/PM/linefol/Dave/Generated/DIGITAL_IO\digital_io.h **** *    }
 296:D:/Proiecte/PM/linefol/Dave/Generated/DIGITAL_IO\digital_io.h **** *    else
 297:D:/Proiecte/PM/linefol/Dave/Generated/DIGITAL_IO\digital_io.h **** *    {
 298:D:/Proiecte/PM/linefol/Dave/Generated/DIGITAL_IO\digital_io.h **** *      XMC_DEBUG(("DAVE Apps initialization failed with status %d\n", status));
 299:D:/Proiecte/PM/linefol/Dave/Generated/DIGITAL_IO\digital_io.h **** *      while(1U)
 300:D:/Proiecte/PM/linefol/Dave/Generated/DIGITAL_IO\digital_io.h **** *      {
 301:D:/Proiecte/PM/linefol/Dave/Generated/DIGITAL_IO\digital_io.h **** *      }
 302:D:/Proiecte/PM/linefol/Dave/Generated/DIGITAL_IO\digital_io.h **** *    }
 303:D:/Proiecte/PM/linefol/Dave/Generated/DIGITAL_IO\digital_io.h **** *    //Placeholder for user application code. The while loop below can be replaced with user applic
 304:D:/Proiecte/PM/linefol/Dave/Generated/DIGITAL_IO\digital_io.h **** *    DIGITAL_IO_SetOutputLow(&DIGITAL_IO_0);
 305:D:/Proiecte/PM/linefol/Dave/Generated/DIGITAL_IO\digital_io.h **** *    while(1U)
 306:D:/Proiecte/PM/linefol/Dave/Generated/DIGITAL_IO\digital_io.h **** *    {
 307:D:/Proiecte/PM/linefol/Dave/Generated/DIGITAL_IO\digital_io.h **** *      // Add application code here
 308:D:/Proiecte/PM/linefol/Dave/Generated/DIGITAL_IO\digital_io.h **** *    }
 309:D:/Proiecte/PM/linefol/Dave/Generated/DIGITAL_IO\digital_io.h **** *
 310:D:/Proiecte/PM/linefol/Dave/Generated/DIGITAL_IO\digital_io.h **** *   return (1);
 311:D:/Proiecte/PM/linefol/Dave/Generated/DIGITAL_IO\digital_io.h **** * }
 312:D:/Proiecte/PM/linefol/Dave/Generated/DIGITAL_IO\digital_io.h **** *  @endcode
 313:D:/Proiecte/PM/linefol/Dave/Generated/DIGITAL_IO\digital_io.h **** */
 314:D:/Proiecte/PM/linefol/Dave/Generated/DIGITAL_IO\digital_io.h **** 
 315:D:/Proiecte/PM/linefol/Dave/Generated/DIGITAL_IO\digital_io.h **** __STATIC_INLINE void DIGITAL_IO_SetOutputLow(const DIGITAL_IO_t *const handler)
 316:D:/Proiecte/PM/linefol/Dave/Generated/DIGITAL_IO\digital_io.h **** {
 142              	 .loc 2 316 0
 143              	 .cfi_startproc
 144 0000 80B5     	 push {r7,lr}
 145              	.LCFI9:
 146              	 .cfi_def_cfa_offset 8
 147              	 .cfi_offset 7,-8
 148              	 .cfi_offset 14,-4
 149 0002 82B0     	 sub sp,sp,#8
 150              	.LCFI10:
 151              	 .cfi_def_cfa_offset 16
 152 0004 00AF     	 add r7,sp,#0
 153              	.LCFI11:
 154              	 .cfi_def_cfa_register 7
 155 0006 7860     	 str r0,[r7,#4]
 317:D:/Proiecte/PM/linefol/Dave/Generated/DIGITAL_IO\digital_io.h ****   XMC_ASSERT("DIGITAL_IO_SetOutputLow: handler null pointer", handler != NULL);
 318:D:/Proiecte/PM/linefol/Dave/Generated/DIGITAL_IO\digital_io.h ****   XMC_GPIO_SetOutputLow(handler->gpio_port,handler->gpio_pin);
 156              	 .loc 2 318 0
 157 0008 7B68     	 ldr r3,[r7,#4]
 158 000a 1A68     	 ldr r2,[r3]
 159 000c 7B68     	 ldr r3,[r7,#4]
 160 000e 1B7B     	 ldrb r3,[r3,#12]
 161 0010 101C     	 mov r0,r2
 162 0012 191C     	 mov r1,r3
 163 0014 FFF7FEFF 	 bl XMC_GPIO_SetOutputLow
 319:D:/Proiecte/PM/linefol/Dave/Generated/DIGITAL_IO\digital_io.h **** }
 164              	 .loc 2 319 0
 165 0018 BD46     	 mov sp,r7
 166 001a 02B0     	 add sp,sp,#8
 167              	 
 168 001c 80BD     	 pop {r7,pc}
 169              	 .cfi_endproc
 170              	.LFE113:
 172 001e C046     	 .section .text.set_Sense,"ax",%progbits
 173              	 .align 2
 174              	 .global set_Sense
 175              	 .code 16
 176              	 .thumb_func
 178              	set_Sense:
 179              	.LFB215:
 180              	 .file 3 "../Motor.c"
   1:../Motor.c    **** /*
   2:../Motor.c    ****  * Motor.c
   3:../Motor.c    ****  *
   4:../Motor.c    ****  *  Created on: May 16, 2018
   5:../Motor.c    ****  *      Author: Ryu
   6:../Motor.c    ****  */
   7:../Motor.c    **** #include "CommonHeader.h"
   8:../Motor.c    **** 
   9:../Motor.c    **** void set_Sense(uint8_t sense_Status)
  10:../Motor.c    **** {
 181              	 .loc 3 10 0
 182              	 .cfi_startproc
 183 0000 80B5     	 push {r7,lr}
 184              	.LCFI12:
 185              	 .cfi_def_cfa_offset 8
 186              	 .cfi_offset 7,-8
 187              	 .cfi_offset 14,-4
 188 0002 82B0     	 sub sp,sp,#8
 189              	.LCFI13:
 190              	 .cfi_def_cfa_offset 16
 191 0004 00AF     	 add r7,sp,#0
 192              	.LCFI14:
 193              	 .cfi_def_cfa_register 7
 194 0006 021C     	 mov r2,r0
 195 0008 FB1D     	 add r3,r7,#7
 196 000a 1A70     	 strb r2,[r3]
  11:../Motor.c    **** 	if (sense_Status == (uint8_t)right)
 197              	 .loc 3 11 0
 198 000c FB1D     	 add r3,r7,#7
 199 000e 1B78     	 ldrb r3,[r3]
 200 0010 012B     	 cmp r3,#1
 201 0012 08D1     	 bne .L6
  12:../Motor.c    **** 	{
  13:../Motor.c    **** 		DIGITAL_IO_SetOutputHigh (&IN1_front);
 202              	 .loc 3 13 0
 203 0014 124B     	 ldr r3,.L9
 204 0016 181C     	 mov r0,r3
 205 0018 FFF7FEFF 	 bl DIGITAL_IO_SetOutputHigh
  14:../Motor.c    **** 		DIGITAL_IO_SetOutputLow(&IN2_front);
 206              	 .loc 3 14 0
 207 001c 114B     	 ldr r3,.L9+4
 208 001e 181C     	 mov r0,r3
 209 0020 FFF7FEFF 	 bl DIGITAL_IO_SetOutputLow
 210 0024 18E0     	 b .L5
 211              	.L6:
  15:../Motor.c    **** 	}
  16:../Motor.c    **** 	else if(sense_Status == (uint8_t)left)
 212              	 .loc 3 16 0
 213 0026 FB1D     	 add r3,r7,#7
 214 0028 1B78     	 ldrb r3,[r3]
 215 002a 002B     	 cmp r3,#0
 216 002c 08D1     	 bne .L8
  17:../Motor.c    **** 	{
  18:../Motor.c    **** 		DIGITAL_IO_SetOutputHigh (&IN2_front);
 217              	 .loc 3 18 0
 218 002e 0D4B     	 ldr r3,.L9+4
 219 0030 181C     	 mov r0,r3
 220 0032 FFF7FEFF 	 bl DIGITAL_IO_SetOutputHigh
  19:../Motor.c    **** 	    DIGITAL_IO_SetOutputLow(&IN1_front);
 221              	 .loc 3 19 0
 222 0036 0A4B     	 ldr r3,.L9
 223 0038 181C     	 mov r0,r3
 224 003a FFF7FEFF 	 bl DIGITAL_IO_SetOutputLow
 225 003e 0BE0     	 b .L5
 226              	.L8:
  20:../Motor.c    **** 	}
  21:../Motor.c    **** 	else if(sense_Status == (uint8_t)straight)
 227              	 .loc 3 21 0
 228 0040 FB1D     	 add r3,r7,#7
 229 0042 1B78     	 ldrb r3,[r3]
 230 0044 022B     	 cmp r3,#2
 231 0046 07D1     	 bne .L5
  22:../Motor.c    **** 	{
  23:../Motor.c    **** 		DIGITAL_IO_SetOutputHigh (&IN2_front);
 232              	 .loc 3 23 0
 233 0048 064B     	 ldr r3,.L9+4
 234 004a 181C     	 mov r0,r3
 235 004c FFF7FEFF 	 bl DIGITAL_IO_SetOutputHigh
  24:../Motor.c    **** 	    DIGITAL_IO_SetOutputHigh(&IN1_front);
 236              	 .loc 3 24 0
 237 0050 034B     	 ldr r3,.L9
 238 0052 181C     	 mov r0,r3
 239 0054 FFF7FEFF 	 bl DIGITAL_IO_SetOutputHigh
 240              	.L5:
  25:../Motor.c    **** 	}
  26:../Motor.c    **** }
 241              	 .loc 3 26 0
 242 0058 BD46     	 mov sp,r7
 243 005a 02B0     	 add sp,sp,#8
 244              	 
 245 005c 80BD     	 pop {r7,pc}
 246              	.L10:
 247 005e C046     	 .align 2
 248              	.L9:
 249 0060 00000000 	 .word IN1_front
 250 0064 00000000 	 .word IN2_front
 251              	 .cfi_endproc
 252              	.LFE215:
 254              	 .section .text.set_Direction,"ax",%progbits
 255              	 .align 2
 256              	 .global set_Direction
 257              	 .code 16
 258              	 .thumb_func
 260              	set_Direction:
 261              	.LFB216:
  27:../Motor.c    **** 
  28:../Motor.c    **** void set_Direction(uint8_t direction_Status)
  29:../Motor.c    **** {
 262              	 .loc 3 29 0
 263              	 .cfi_startproc
 264 0000 80B5     	 push {r7,lr}
 265              	.LCFI15:
 266              	 .cfi_def_cfa_offset 8
 267              	 .cfi_offset 7,-8
 268              	 .cfi_offset 14,-4
 269 0002 82B0     	 sub sp,sp,#8
 270              	.LCFI16:
 271              	 .cfi_def_cfa_offset 16
 272 0004 00AF     	 add r7,sp,#0
 273              	.LCFI17:
 274              	 .cfi_def_cfa_register 7
 275 0006 021C     	 mov r2,r0
 276 0008 FB1D     	 add r3,r7,#7
 277 000a 1A70     	 strb r2,[r3]
  30:../Motor.c    **** 	if (direction_Status == (uint8_t)forward)
 278              	 .loc 3 30 0
 279 000c FB1D     	 add r3,r7,#7
 280 000e 1B78     	 ldrb r3,[r3]
 281 0010 012B     	 cmp r3,#1
 282 0012 08D1     	 bne .L12
  31:../Motor.c    **** 	{
  32:../Motor.c    **** 		DIGITAL_IO_SetOutputHigh (&IN4_back);
 283              	 .loc 3 32 0
 284 0014 0B4B     	 ldr r3,.L14
 285 0016 181C     	 mov r0,r3
 286 0018 FFF7FEFF 	 bl DIGITAL_IO_SetOutputHigh
  33:../Motor.c    **** 		DIGITAL_IO_SetOutputLow(&IN3_back);
 287              	 .loc 3 33 0
 288 001c 0A4B     	 ldr r3,.L14+4
 289 001e 181C     	 mov r0,r3
 290 0020 FFF7FEFF 	 bl DIGITAL_IO_SetOutputLow
 291 0024 0BE0     	 b .L11
 292              	.L12:
  34:../Motor.c    **** 	}
  35:../Motor.c    **** 	else if(direction_Status == (uint8_t)backward)
 293              	 .loc 3 35 0
 294 0026 FB1D     	 add r3,r7,#7
 295 0028 1B78     	 ldrb r3,[r3]
 296 002a 002B     	 cmp r3,#0
 297 002c 07D1     	 bne .L11
  36:../Motor.c    **** 	{
  37:../Motor.c    **** 		DIGITAL_IO_SetOutputHigh (&IN3_back);
 298              	 .loc 3 37 0
 299 002e 064B     	 ldr r3,.L14+4
 300 0030 181C     	 mov r0,r3
 301 0032 FFF7FEFF 	 bl DIGITAL_IO_SetOutputHigh
  38:../Motor.c    **** 	    DIGITAL_IO_SetOutputLow(&IN4_back);
 302              	 .loc 3 38 0
 303 0036 034B     	 ldr r3,.L14
 304 0038 181C     	 mov r0,r3
 305 003a FFF7FEFF 	 bl DIGITAL_IO_SetOutputLow
 306              	.L11:
  39:../Motor.c    **** 	}
  40:../Motor.c    **** 
  41:../Motor.c    **** }
 307              	 .loc 3 41 0
 308 003e BD46     	 mov sp,r7
 309 0040 02B0     	 add sp,sp,#8
 310              	 
 311 0042 80BD     	 pop {r7,pc}
 312              	.L15:
 313              	 .align 2
 314              	.L14:
 315 0044 00000000 	 .word IN4_back
 316 0048 00000000 	 .word IN3_back
 317              	 .cfi_endproc
 318              	.LFE216:
 320              	 .section .text.set_Motors,"ax",%progbits
 321              	 .align 2
 322              	 .global set_Motors
 323              	 .code 16
 324              	 .thumb_func
 326              	set_Motors:
 327              	.LFB217:
  42:../Motor.c    **** 
  43:../Motor.c    **** void set_Motors(command decoded_message)
  44:../Motor.c    **** {
 328              	 .loc 3 44 0
 329              	 .cfi_startproc
 330 0000 80B5     	 push {r7,lr}
 331              	.LCFI18:
 332              	 .cfi_def_cfa_offset 8
 333              	 .cfi_offset 7,-8
 334              	 .cfi_offset 14,-4
 335 0002 82B0     	 sub sp,sp,#8
 336              	.LCFI19:
 337              	 .cfi_def_cfa_offset 16
 338 0004 00AF     	 add r7,sp,#0
 339              	.LCFI20:
 340              	 .cfi_def_cfa_register 7
 341 0006 3B1C     	 mov r3,r7
 342 0008 1860     	 str r0,[r3]
 343 000a 5960     	 str r1,[r3,#4]
  45:../Motor.c    **** 	set_Direction(decoded_message.direction);
 344              	 .loc 3 45 0
 345 000c 3B1C     	 mov r3,r7
 346 000e DB78     	 ldrb r3,[r3,#3]
 347 0010 181C     	 mov r0,r3
 348 0012 FFF7FEFF 	 bl set_Direction
  46:../Motor.c    **** 	set_Sense(decoded_message.sense);
 349              	 .loc 3 46 0
 350 0016 3B1C     	 mov r3,r7
 351 0018 1B79     	 ldrb r3,[r3,#4]
 352 001a 181C     	 mov r0,r3
 353 001c FFF7FEFF 	 bl set_Sense
  47:../Motor.c    **** 	PWM_SetDutyCycle(&motor_back,10000/127*((int)decoded_message.motor_value[back]));
 354              	 .loc 3 47 0
 355 0020 3B1C     	 mov r3,r7
 356 0022 9B78     	 ldrb r3,[r3,#2]
 357 0024 1A1C     	 mov r2,r3
 358 0026 4E23     	 mov r3,#78
 359 0028 5343     	 mul r3,r2
 360 002a 1A1C     	 mov r2,r3
 361 002c 034B     	 ldr r3,.L17
 362 002e 181C     	 mov r0,r3
 363 0030 111C     	 mov r1,r2
 364 0032 FFF7FEFF 	 bl PWM_SetDutyCycle
  48:../Motor.c    **** 
  49:../Motor.c    **** }
 365              	 .loc 3 49 0
 366 0036 BD46     	 mov sp,r7
 367 0038 02B0     	 add sp,sp,#8
 368              	 
 369 003a 80BD     	 pop {r7,pc}
 370              	.L18:
 371              	 .align 2
 372              	.L17:
 373 003c 00000000 	 .word motor_back
 374              	 .cfi_endproc
 375              	.LFE217:
 377              	 .section .text.push_Breakes,"ax",%progbits
 378              	 .align 2
 379              	 .global push_Breakes
 380              	 .code 16
 381              	 .thumb_func
 383              	push_Breakes:
 384              	.LFB218:
  50:../Motor.c    **** 
  51:../Motor.c    **** // USE THIS WITH CARE FOR PASENGERS
  52:../Motor.c    **** void push_Breakes(void)
  53:../Motor.c    **** {
 385              	 .loc 3 53 0
 386              	 .cfi_startproc
 387 0000 80B5     	 push {r7,lr}
 388              	.LCFI21:
 389              	 .cfi_def_cfa_offset 8
 390              	 .cfi_offset 7,-8
 391              	 .cfi_offset 14,-4
 392 0002 00AF     	 add r7,sp,#0
 393              	.LCFI22:
 394              	 .cfi_def_cfa_register 7
  54:../Motor.c    **** 	   DIGITAL_IO_SetOutputLow(&IN2_front);
 395              	 .loc 3 54 0
 396 0004 084B     	 ldr r3,.L20
 397 0006 181C     	 mov r0,r3
 398 0008 FFF7FEFF 	 bl DIGITAL_IO_SetOutputLow
  55:../Motor.c    **** 	   DIGITAL_IO_SetOutputLow(&IN1_front);
 399              	 .loc 3 55 0
 400 000c 074B     	 ldr r3,.L20+4
 401 000e 181C     	 mov r0,r3
 402 0010 FFF7FEFF 	 bl DIGITAL_IO_SetOutputLow
  56:../Motor.c    **** 	   DIGITAL_IO_SetOutputLow(&IN3_back);
 403              	 .loc 3 56 0
 404 0014 064B     	 ldr r3,.L20+8
 405 0016 181C     	 mov r0,r3
 406 0018 FFF7FEFF 	 bl DIGITAL_IO_SetOutputLow
  57:../Motor.c    **** 	   DIGITAL_IO_SetOutputLow(&IN4_back);
 407              	 .loc 3 57 0
 408 001c 054B     	 ldr r3,.L20+12
 409 001e 181C     	 mov r0,r3
 410 0020 FFF7FEFF 	 bl DIGITAL_IO_SetOutputLow
  58:../Motor.c    **** }
 411              	 .loc 3 58 0
 412 0024 BD46     	 mov sp,r7
 413              	 
 414 0026 80BD     	 pop {r7,pc}
 415              	.L21:
 416              	 .align 2
 417              	.L20:
 418 0028 00000000 	 .word IN2_front
 419 002c 00000000 	 .word IN1_front
 420 0030 00000000 	 .word IN3_back
 421 0034 00000000 	 .word IN4_back
 422              	 .cfi_endproc
 423              	.LFE218:
 425              	 .section .text.command_Manager,"ax",%progbits
 426              	 .align 2
 427              	 .global command_Manager
 428              	 .code 16
 429              	 .thumb_func
 431              	command_Manager:
 432              	.LFB219:
  59:../Motor.c    **** 
  60:../Motor.c    **** void command_Manager(command decoded_message)
  61:../Motor.c    **** {
 433              	 .loc 3 61 0
 434              	 .cfi_startproc
 435 0000 80B5     	 push {r7,lr}
 436              	.LCFI23:
 437              	 .cfi_def_cfa_offset 8
 438              	 .cfi_offset 7,-8
 439              	 .cfi_offset 14,-4
 440 0002 82B0     	 sub sp,sp,#8
 441              	.LCFI24:
 442              	 .cfi_def_cfa_offset 16
 443 0004 00AF     	 add r7,sp,#0
 444              	.LCFI25:
 445              	 .cfi_def_cfa_register 7
 446 0006 3B1C     	 mov r3,r7
 447 0008 1860     	 str r0,[r3]
 448 000a 5960     	 str r1,[r3,#4]
  62:../Motor.c    **** 	//command decoded_message = decode_Message(message);
  63:../Motor.c    **** 
  64:../Motor.c    **** 	switch(decoded_message.tag)
 449              	 .loc 3 64 0
 450 000c 3B1C     	 mov r3,r7
 451 000e 1B78     	 ldrb r3,[r3]
 452 0010 022B     	 cmp r3,#2
 453 0012 0AD0     	 beq .L24
 454 0014 032B     	 cmp r3,#3
 455 0016 0BD0     	 beq .L28
 456 0018 012B     	 cmp r3,#1
 457 001a 00D0     	 beq .L26
  65:../Motor.c    **** 	{
  66:../Motor.c    **** 		case motor_duty:
  67:../Motor.c    **** 				set_Motors(decoded_message);
  68:../Motor.c    **** 				break;
  69:../Motor.c    **** 		case brakes:
  70:../Motor.c    **** 				push_Breakes();
  71:../Motor.c    **** 				break;
  72:../Motor.c    **** 		case line_follower:
  73:../Motor.c    **** 				break;
  74:../Motor.c    **** 		default: break;
 458              	 .loc 3 74 0
 459 001c 09E0     	 b .L22
 460              	.L26:
  67:../Motor.c    **** 				break;
 461              	 .loc 3 67 0
 462 001e 3B1C     	 mov r3,r7
 463 0020 1868     	 ldr r0,[r3]
 464 0022 5968     	 ldr r1,[r3,#4]
 465 0024 FFF7FEFF 	 bl set_Motors
  68:../Motor.c    **** 		case brakes:
 466              	 .loc 3 68 0
 467 0028 03E0     	 b .L22
 468              	.L24:
  70:../Motor.c    **** 				break;
 469              	 .loc 3 70 0
 470 002a FFF7FEFF 	 bl push_Breakes
  71:../Motor.c    **** 		case line_follower:
 471              	 .loc 3 71 0
 472 002e 00E0     	 b .L22
 473              	.L28:
  73:../Motor.c    **** 		default: break;
 474              	 .loc 3 73 0
 475 0030 C046     	 mov r8,r8
 476              	.L22:
  75:../Motor.c    **** 
  76:../Motor.c    **** 
  77:../Motor.c    **** 	}
  78:../Motor.c    **** }
 477              	 .loc 3 78 0
 478 0032 BD46     	 mov sp,r7
 479 0034 02B0     	 add sp,sp,#8
 480              	 
 481 0036 80BD     	 pop {r7,pc}
 482              	 .cfi_endproc
 483              	.LFE219:
 485              	 .section .text.get_message,"ax",%progbits
 486              	 .align 2
 487              	 .global get_message
 488              	 .code 16
 489              	 .thumb_func
 491              	get_message:
 492              	.LFB220:
  79:../Motor.c    **** 
  80:../Motor.c    **** void get_message(void)
  81:../Motor.c    **** {
 493              	 .loc 3 81 0
 494              	 .cfi_startproc
 495 0000 80B5     	 push {r7,lr}
 496              	.LCFI26:
 497              	 .cfi_def_cfa_offset 8
 498              	 .cfi_offset 7,-8
 499              	 .cfi_offset 14,-4
 500 0002 00AF     	 add r7,sp,#0
 501              	.LCFI27:
 502              	 .cfi_def_cfa_register 7
  82:../Motor.c    **** 	//uint8_t message[3];
  83:../Motor.c    **** 	//UART_Receive(&UART_0, message,sizeof(message));// carcatere receptionat
  84:../Motor.c    **** 	//UART_Transmit(&UART_0, message, sizeof(message));
  85:../Motor.c    **** 	//command_Manager(message);
  86:../Motor.c    **** 
  87:../Motor.c    **** }
 503              	 .loc 3 87 0
 504 0004 BD46     	 mov sp,r7
 505              	 
 506 0006 80BD     	 pop {r7,pc}
 507              	 .cfi_endproc
 508              	.LFE220:
 510              	 .text
 511              	.Letext0:
 512              	 .file 4 "d:\\some programming\\dave\\dave_4-4-2_64bit_2018-02-23\\dave-ide-4.4.2-64bit\\eclipse\\arm-gcc-49\\arm-none-eabi\\include\\machine\\_default_types.h"
 513              	 .file 5 "d:\\some programming\\dave\\dave_4-4-2_64bit_2018-02-23\\dave-ide-4.4.2-64bit\\eclipse\\arm-gcc-49\\arm-none-eabi\\include\\stdint.h"
 514              	 .file 6 "D:/Proiecte/PM/linefol/Libraries/CMSIS/Infineon/XMC1100_series/Include/XMC1100.h"
 515              	 .file 7 "D:/Proiecte/PM/linefol/Libraries/XMCLib/inc/xmc1_scu.h"
 516              	 .file 8 "D:/Proiecte/PM/linefol/Libraries/XMCLib/inc/xmc_ccu4.h"
 517              	 .file 9 "D:/Proiecte/PM/linefol/Dave/Generated/GLOBAL_CCU4/global_ccu4.h"
 518              	 .file 10 "D:/Proiecte/PM/linefol/Libraries/XMCLib/inc/xmc1_gpio.h"
 519              	 .file 11 "D:/Proiecte/PM/linefol/Dave/Generated/PWM/pwm.h"
 520              	 .file 12 "../CommonHeader.h"
 521              	 .file 13 "D:/Proiecte/PM/linefol/Libraries/CMSIS/Infineon/XMC1100_series/Include/system_XMC1100.h"
 522              	 .file 14 "D:/Proiecte/PM/linefol/Dave/Generated/PWM/PWM_Extern.h"
 523              	 .file 15 "D:/Proiecte/PM/linefol/Dave/Generated/DIGITAL_IO/digital_io_extern.h"
DEFINED SYMBOLS
                            *ABS*:00000000 Motor.c
    {standard input}:18     .text.XMC_GPIO_SetOutputHigh:00000000 $t
    {standard input}:22     .text.XMC_GPIO_SetOutputHigh:00000000 XMC_GPIO_SetOutputHigh
    {standard input}:58     .text.XMC_GPIO_SetOutputLow:00000000 $t
    {standard input}:62     .text.XMC_GPIO_SetOutputLow:00000000 XMC_GPIO_SetOutputLow
    {standard input}:98     .text.DIGITAL_IO_SetOutputHigh:00000000 $t
    {standard input}:102    .text.DIGITAL_IO_SetOutputHigh:00000000 DIGITAL_IO_SetOutputHigh
    {standard input}:136    .text.DIGITAL_IO_SetOutputLow:00000000 $t
    {standard input}:140    .text.DIGITAL_IO_SetOutputLow:00000000 DIGITAL_IO_SetOutputLow
    {standard input}:173    .text.set_Sense:00000000 $t
    {standard input}:178    .text.set_Sense:00000000 set_Sense
    {standard input}:249    .text.set_Sense:00000060 $d
    {standard input}:255    .text.set_Direction:00000000 $t
    {standard input}:260    .text.set_Direction:00000000 set_Direction
    {standard input}:315    .text.set_Direction:00000044 $d
    {standard input}:321    .text.set_Motors:00000000 $t
    {standard input}:326    .text.set_Motors:00000000 set_Motors
    {standard input}:373    .text.set_Motors:0000003c $d
    {standard input}:378    .text.push_Breakes:00000000 $t
    {standard input}:383    .text.push_Breakes:00000000 push_Breakes
    {standard input}:418    .text.push_Breakes:00000028 $d
    {standard input}:426    .text.command_Manager:00000000 $t
    {standard input}:431    .text.command_Manager:00000000 command_Manager
    {standard input}:486    .text.get_message:00000000 $t
    {standard input}:491    .text.get_message:00000000 get_message
                     .debug_frame:00000010 $d

UNDEFINED SYMBOLS
IN1_front
IN2_front
IN4_back
IN3_back
PWM_SetDutyCycle
motor_back
